
*** Running vivado
    with args -log block1_myip_0_2.vds -m64 -product Vivado -mode batch -messageDb vivado.pb -notrace -source block1_myip_0_2.tcl


****** Vivado v2017.4 (64-bit)
  **** SW Build 2086221 on Fri Dec 15 20:55:39 MST 2017
  **** IP Build 2085800 on Fri Dec 15 22:25:07 MST 2017
    ** Copyright 1986-2017 Xilinx, Inc. All Rights Reserved.

source block1_myip_0_2.tcl -notrace
Command: synth_design -top block1_myip_0_2 -part xc7z020clg484-1 -mode out_of_context
Starting synth_design
Attempting to get a license for feature 'Synthesis' and/or device 'xc7z020'
INFO: [Common 17-349] Got license for feature 'Synthesis' and/or device 'xc7z020'
INFO: Launching helper process for spawning children vivado processes
INFO: Helper process launched with PID 9388 
WARNING: [Synth 8-2507] parameter declaration becomes local in myip_v1_0_S00_AXIS with formal parameter declaration list [c:/Users/Yongqin Wang/vivad/sure/sure.srcs/sources_1/bd/block1/ipshared/baf2/hdl/myip_v1_0_S00_AXIS.v:63]
WARNING: [Synth 8-2507] parameter declaration becomes local in myip_v1_0_M00_AXIS with formal parameter declaration list [c:/Users/Yongqin Wang/vivad/sure/sure.srcs/sources_1/bd/block1/ipshared/baf2/hdl/myip_v1_0_M00_AXIS.v:63]
---------------------------------------------------------------------------------
Starting RTL Elaboration : Time (s): cpu = 00:00:05 ; elapsed = 00:00:05 . Memory (MB): peak = 367.578 ; gain = 112.055
---------------------------------------------------------------------------------
INFO: [Synth 8-638] synthesizing module 'block1_myip_0_2' [c:/Users/Yongqin Wang/vivad/sure/sure.srcs/sources_1/bd/block1/ip/block1_myip_0_2/synth/block1_myip_0_2.v:57]
INFO: [Synth 8-638] synthesizing module 'myip_v1_0' [c:/Users/Yongqin Wang/vivad/sure/sure.srcs/sources_1/bd/block1/ipshared/baf2/hdl/myip_v1_0.v:4]
	Parameter C_S00_AXIS_TDATA_WIDTH bound to: 32 - type: integer 
	Parameter C_M00_AXIS_TDATA_WIDTH bound to: 32 - type: integer 
	Parameter C_M00_AXIS_START_COUNT bound to: 32 - type: integer 
INFO: [Synth 8-638] synthesizing module 'myip_v1_0_S00_AXIS' [c:/Users/Yongqin Wang/vivad/sure/sure.srcs/sources_1/bd/block1/ipshared/baf2/hdl/myip_v1_0_S00_AXIS.v:4]
	Parameter CONFIG_WIDTH bound to: 32 - type: integer 
	Parameter FEATURE_WIDTH bound to: 8 - type: integer 
	Parameter FEATURE_ROW bound to: 6 - type: integer 
	Parameter FEATURE_COL bound to: 12 - type: integer 
	Parameter WEIGHT_SIZE_WIDTH bound to: 64 - type: integer 
	Parameter WEIGHT_UINDEX bound to: 4 - type: integer 
	Parameter TENSOR_SLICE bound to: 8 - type: integer 
	Parameter BIAS_WIDTH bound to: 8 - type: integer 
	Parameter TENSOR_WIDTH bound to: 8 - type: integer 
	Parameter C_S_AXIS_TDATA_WIDTH bound to: 32 - type: integer 
	Parameter NUMBER_OF_INPUT_WORDS bound to: 128 - type: integer 
	Parameter bit_num bound to: 7 - type: integer 
	Parameter IDLE bound to: 2'b00 
	Parameter WRITE_FIFO bound to: 2'b01 
INFO: [Synth 8-638] synthesizing module 'tensor_core' [c:/Users/Yongqin Wang/vivad/sure/sure.srcs/sources_1/bd/block1/ipshared/baf2/hdl/myip_v1_0_S00_AXIS.v:216]
	Parameter CONFIG_WIDTH bound to: 32 - type: integer 
	Parameter FEATURE_WIDTH bound to: 8 - type: integer 
	Parameter FEATURE_ROW bound to: 6 - type: integer 
	Parameter FEATURE_COL bound to: 12 - type: integer 
	Parameter WEIGHT_SIZE_WIDTH bound to: 64 - type: integer 
	Parameter WEIGHT_UINDEX bound to: 4 - type: integer 
	Parameter TENSOR_SLICE bound to: 8 - type: integer 
	Parameter BIAS_WIDTH bound to: 8 - type: integer 
	Parameter TENSOR_WIDTH bound to: 8 - type: integer 
INFO: [Synth 8-638] synthesizing module 'tensor_slice' [c:/Users/Yongqin Wang/vivad/sure/sure.srcs/sources_1/bd/block1/ipshared/baf2/hdl/myip_v1_0_S00_AXIS.v:422]
	Parameter CONFIG_WIDTH bound to: 26 - type: integer 
	Parameter WINDOW_SIZE bound to: 9 - type: integer 
	Parameter WEIGHT_SIZE_WIDTH bound to: 64 - type: integer 
	Parameter WEIGHT_UINDEX bound to: 4 - type: integer 
	Parameter BIAS_WIDTH bound to: 8 - type: integer 
	Parameter TENSOR_WIDTH bound to: 8 - type: integer 
	Parameter FEATURE_WIDTH bound to: 8 - type: integer 
WARNING: [Synth 8-3936] Found unconnected internal register 'w_reg' and it is trimmed from '64' to '63' bits. [c:/Users/Yongqin Wang/vivad/sure/sure.srcs/sources_1/bd/block1/ipshared/baf2/hdl/myip_v1_0_S00_AXIS.v:451]
INFO: [Synth 8-256] done synthesizing module 'tensor_slice' (1#1) [c:/Users/Yongqin Wang/vivad/sure/sure.srcs/sources_1/bd/block1/ipshared/baf2/hdl/myip_v1_0_S00_AXIS.v:422]
INFO: [Synth 8-256] done synthesizing module 'tensor_core' (2#1) [c:/Users/Yongqin Wang/vivad/sure/sure.srcs/sources_1/bd/block1/ipshared/baf2/hdl/myip_v1_0_S00_AXIS.v:216]
WARNING: [Synth 8-6014] Unused sequential element FIFO_GEN[0].fifo_reg[127] was removed.  [c:/Users/Yongqin Wang/vivad/sure/sure.srcs/sources_1/bd/block1/ipshared/baf2/hdl/myip_v1_0_S00_AXIS.v:168]
WARNING: [Synth 8-6014] Unused sequential element FIFO_GEN[0].fifo_reg[126] was removed.  [c:/Users/Yongqin Wang/vivad/sure/sure.srcs/sources_1/bd/block1/ipshared/baf2/hdl/myip_v1_0_S00_AXIS.v:168]
WARNING: [Synth 8-6014] Unused sequential element FIFO_GEN[0].fifo_reg[125] was removed.  [c:/Users/Yongqin Wang/vivad/sure/sure.srcs/sources_1/bd/block1/ipshared/baf2/hdl/myip_v1_0_S00_AXIS.v:168]
WARNING: [Synth 8-6014] Unused sequential element FIFO_GEN[0].fifo_reg[124] was removed.  [c:/Users/Yongqin Wang/vivad/sure/sure.srcs/sources_1/bd/block1/ipshared/baf2/hdl/myip_v1_0_S00_AXIS.v:168]
WARNING: [Synth 8-6014] Unused sequential element FIFO_GEN[0].fifo_reg[123] was removed.  [c:/Users/Yongqin Wang/vivad/sure/sure.srcs/sources_1/bd/block1/ipshared/baf2/hdl/myip_v1_0_S00_AXIS.v:168]
WARNING: [Synth 8-6014] Unused sequential element FIFO_GEN[0].fifo_reg[122] was removed.  [c:/Users/Yongqin Wang/vivad/sure/sure.srcs/sources_1/bd/block1/ipshared/baf2/hdl/myip_v1_0_S00_AXIS.v:168]
WARNING: [Synth 8-6014] Unused sequential element FIFO_GEN[0].fifo_reg[121] was removed.  [c:/Users/Yongqin Wang/vivad/sure/sure.srcs/sources_1/bd/block1/ipshared/baf2/hdl/myip_v1_0_S00_AXIS.v:168]
WARNING: [Synth 8-6014] Unused sequential element FIFO_GEN[0].fifo_reg[120] was removed.  [c:/Users/Yongqin Wang/vivad/sure/sure.srcs/sources_1/bd/block1/ipshared/baf2/hdl/myip_v1_0_S00_AXIS.v:168]
WARNING: [Synth 8-6014] Unused sequential element FIFO_GEN[0].fifo_reg[119] was removed.  [c:/Users/Yongqin Wang/vivad/sure/sure.srcs/sources_1/bd/block1/ipshared/baf2/hdl/myip_v1_0_S00_AXIS.v:168]
WARNING: [Synth 8-6014] Unused sequential element FIFO_GEN[0].fifo_reg[118] was removed.  [c:/Users/Yongqin Wang/vivad/sure/sure.srcs/sources_1/bd/block1/ipshared/baf2/hdl/myip_v1_0_S00_AXIS.v:168]
WARNING: [Synth 8-6014] Unused sequential element FIFO_GEN[0].fifo_reg[117] was removed.  [c:/Users/Yongqin Wang/vivad/sure/sure.srcs/sources_1/bd/block1/ipshared/baf2/hdl/myip_v1_0_S00_AXIS.v:168]
WARNING: [Synth 8-6014] Unused sequential element FIFO_GEN[0].fifo_reg[116] was removed.  [c:/Users/Yongqin Wang/vivad/sure/sure.srcs/sources_1/bd/block1/ipshared/baf2/hdl/myip_v1_0_S00_AXIS.v:168]
WARNING: [Synth 8-6014] Unused sequential element FIFO_GEN[0].fifo_reg[115] was removed.  [c:/Users/Yongqin Wang/vivad/sure/sure.srcs/sources_1/bd/block1/ipshared/baf2/hdl/myip_v1_0_S00_AXIS.v:168]
WARNING: [Synth 8-6014] Unused sequential element FIFO_GEN[0].fifo_reg[114] was removed.  [c:/Users/Yongqin Wang/vivad/sure/sure.srcs/sources_1/bd/block1/ipshared/baf2/hdl/myip_v1_0_S00_AXIS.v:168]
WARNING: [Synth 8-6014] Unused sequential element FIFO_GEN[0].fifo_reg[113] was removed.  [c:/Users/Yongqin Wang/vivad/sure/sure.srcs/sources_1/bd/block1/ipshared/baf2/hdl/myip_v1_0_S00_AXIS.v:168]
WARNING: [Synth 8-6014] Unused sequential element FIFO_GEN[0].fifo_reg[112] was removed.  [c:/Users/Yongqin Wang/vivad/sure/sure.srcs/sources_1/bd/block1/ipshared/baf2/hdl/myip_v1_0_S00_AXIS.v:168]
WARNING: [Synth 8-6014] Unused sequential element FIFO_GEN[0].fifo_reg[111] was removed.  [c:/Users/Yongqin Wang/vivad/sure/sure.srcs/sources_1/bd/block1/ipshared/baf2/hdl/myip_v1_0_S00_AXIS.v:168]
WARNING: [Synth 8-6014] Unused sequential element FIFO_GEN[0].fifo_reg[110] was removed.  [c:/Users/Yongqin Wang/vivad/sure/sure.srcs/sources_1/bd/block1/ipshared/baf2/hdl/myip_v1_0_S00_AXIS.v:168]
WARNING: [Synth 8-6014] Unused sequential element FIFO_GEN[0].fifo_reg[109] was removed.  [c:/Users/Yongqin Wang/vivad/sure/sure.srcs/sources_1/bd/block1/ipshared/baf2/hdl/myip_v1_0_S00_AXIS.v:168]
WARNING: [Synth 8-6014] Unused sequential element FIFO_GEN[0].fifo_reg[108] was removed.  [c:/Users/Yongqin Wang/vivad/sure/sure.srcs/sources_1/bd/block1/ipshared/baf2/hdl/myip_v1_0_S00_AXIS.v:168]
WARNING: [Synth 8-6014] Unused sequential element FIFO_GEN[0].fifo_reg[107] was removed.  [c:/Users/Yongqin Wang/vivad/sure/sure.srcs/sources_1/bd/block1/ipshared/baf2/hdl/myip_v1_0_S00_AXIS.v:168]
WARNING: [Synth 8-6014] Unused sequential element FIFO_GEN[0].fifo_reg[106] was removed.  [c:/Users/Yongqin Wang/vivad/sure/sure.srcs/sources_1/bd/block1/ipshared/baf2/hdl/myip_v1_0_S00_AXIS.v:168]
WARNING: [Synth 8-6014] Unused sequential element FIFO_GEN[0].fifo_reg[105] was removed.  [c:/Users/Yongqin Wang/vivad/sure/sure.srcs/sources_1/bd/block1/ipshared/baf2/hdl/myip_v1_0_S00_AXIS.v:168]
WARNING: [Synth 8-6014] Unused sequential element FIFO_GEN[0].fifo_reg[104] was removed.  [c:/Users/Yongqin Wang/vivad/sure/sure.srcs/sources_1/bd/block1/ipshared/baf2/hdl/myip_v1_0_S00_AXIS.v:168]
WARNING: [Synth 8-6014] Unused sequential element FIFO_GEN[0].fifo_reg[103] was removed.  [c:/Users/Yongqin Wang/vivad/sure/sure.srcs/sources_1/bd/block1/ipshared/baf2/hdl/myip_v1_0_S00_AXIS.v:168]
WARNING: [Synth 8-6014] Unused sequential element FIFO_GEN[0].fifo_reg[102] was removed.  [c:/Users/Yongqin Wang/vivad/sure/sure.srcs/sources_1/bd/block1/ipshared/baf2/hdl/myip_v1_0_S00_AXIS.v:168]
WARNING: [Synth 8-6014] Unused sequential element FIFO_GEN[0].fifo_reg[101] was removed.  [c:/Users/Yongqin Wang/vivad/sure/sure.srcs/sources_1/bd/block1/ipshared/baf2/hdl/myip_v1_0_S00_AXIS.v:168]
WARNING: [Synth 8-6014] Unused sequential element FIFO_GEN[0].fifo_reg[100] was removed.  [c:/Users/Yongqin Wang/vivad/sure/sure.srcs/sources_1/bd/block1/ipshared/baf2/hdl/myip_v1_0_S00_AXIS.v:168]
WARNING: [Synth 8-6014] Unused sequential element FIFO_GEN[0].fifo_reg[99] was removed.  [c:/Users/Yongqin Wang/vivad/sure/sure.srcs/sources_1/bd/block1/ipshared/baf2/hdl/myip_v1_0_S00_AXIS.v:168]
WARNING: [Synth 8-6014] Unused sequential element FIFO_GEN[0].fifo_reg[98] was removed.  [c:/Users/Yongqin Wang/vivad/sure/sure.srcs/sources_1/bd/block1/ipshared/baf2/hdl/myip_v1_0_S00_AXIS.v:168]
WARNING: [Synth 8-6014] Unused sequential element FIFO_GEN[0].fifo_reg[97] was removed.  [c:/Users/Yongqin Wang/vivad/sure/sure.srcs/sources_1/bd/block1/ipshared/baf2/hdl/myip_v1_0_S00_AXIS.v:168]
WARNING: [Synth 8-6014] Unused sequential element FIFO_GEN[0].fifo_reg[96] was removed.  [c:/Users/Yongqin Wang/vivad/sure/sure.srcs/sources_1/bd/block1/ipshared/baf2/hdl/myip_v1_0_S00_AXIS.v:168]
WARNING: [Synth 8-6014] Unused sequential element FIFO_GEN[0].fifo_reg[95] was removed.  [c:/Users/Yongqin Wang/vivad/sure/sure.srcs/sources_1/bd/block1/ipshared/baf2/hdl/myip_v1_0_S00_AXIS.v:168]
WARNING: [Synth 8-6014] Unused sequential element FIFO_GEN[0].fifo_reg[94] was removed.  [c:/Users/Yongqin Wang/vivad/sure/sure.srcs/sources_1/bd/block1/ipshared/baf2/hdl/myip_v1_0_S00_AXIS.v:168]
WARNING: [Synth 8-6014] Unused sequential element FIFO_GEN[0].fifo_reg[93] was removed.  [c:/Users/Yongqin Wang/vivad/sure/sure.srcs/sources_1/bd/block1/ipshared/baf2/hdl/myip_v1_0_S00_AXIS.v:168]
WARNING: [Synth 8-6014] Unused sequential element FIFO_GEN[0].fifo_reg[92] was removed.  [c:/Users/Yongqin Wang/vivad/sure/sure.srcs/sources_1/bd/block1/ipshared/baf2/hdl/myip_v1_0_S00_AXIS.v:168]
WARNING: [Synth 8-6014] Unused sequential element FIFO_GEN[0].fifo_reg[91] was removed.  [c:/Users/Yongqin Wang/vivad/sure/sure.srcs/sources_1/bd/block1/ipshared/baf2/hdl/myip_v1_0_S00_AXIS.v:168]
WARNING: [Synth 8-6014] Unused sequential element FIFO_GEN[0].fifo_reg[90] was removed.  [c:/Users/Yongqin Wang/vivad/sure/sure.srcs/sources_1/bd/block1/ipshared/baf2/hdl/myip_v1_0_S00_AXIS.v:168]
WARNING: [Synth 8-6014] Unused sequential element FIFO_GEN[0].fifo_reg[89] was removed.  [c:/Users/Yongqin Wang/vivad/sure/sure.srcs/sources_1/bd/block1/ipshared/baf2/hdl/myip_v1_0_S00_AXIS.v:168]
WARNING: [Synth 8-6014] Unused sequential element FIFO_GEN[0].fifo_reg[88] was removed.  [c:/Users/Yongqin Wang/vivad/sure/sure.srcs/sources_1/bd/block1/ipshared/baf2/hdl/myip_v1_0_S00_AXIS.v:168]
WARNING: [Synth 8-6014] Unused sequential element FIFO_GEN[0].fifo_reg[87] was removed.  [c:/Users/Yongqin Wang/vivad/sure/sure.srcs/sources_1/bd/block1/ipshared/baf2/hdl/myip_v1_0_S00_AXIS.v:168]
WARNING: [Synth 8-6014] Unused sequential element FIFO_GEN[0].fifo_reg[86] was removed.  [c:/Users/Yongqin Wang/vivad/sure/sure.srcs/sources_1/bd/block1/ipshared/baf2/hdl/myip_v1_0_S00_AXIS.v:168]
WARNING: [Synth 8-6014] Unused sequential element FIFO_GEN[0].fifo_reg[85] was removed.  [c:/Users/Yongqin Wang/vivad/sure/sure.srcs/sources_1/bd/block1/ipshared/baf2/hdl/myip_v1_0_S00_AXIS.v:168]
WARNING: [Synth 8-6014] Unused sequential element FIFO_GEN[0].fifo_reg[84] was removed.  [c:/Users/Yongqin Wang/vivad/sure/sure.srcs/sources_1/bd/block1/ipshared/baf2/hdl/myip_v1_0_S00_AXIS.v:168]
WARNING: [Synth 8-6014] Unused sequential element FIFO_GEN[0].fifo_reg[83] was removed.  [c:/Users/Yongqin Wang/vivad/sure/sure.srcs/sources_1/bd/block1/ipshared/baf2/hdl/myip_v1_0_S00_AXIS.v:168]
WARNING: [Synth 8-6014] Unused sequential element FIFO_GEN[1].fifo_reg[127] was removed.  [c:/Users/Yongqin Wang/vivad/sure/sure.srcs/sources_1/bd/block1/ipshared/baf2/hdl/myip_v1_0_S00_AXIS.v:168]
WARNING: [Synth 8-6014] Unused sequential element FIFO_GEN[1].fifo_reg[126] was removed.  [c:/Users/Yongqin Wang/vivad/sure/sure.srcs/sources_1/bd/block1/ipshared/baf2/hdl/myip_v1_0_S00_AXIS.v:168]
WARNING: [Synth 8-6014] Unused sequential element FIFO_GEN[1].fifo_reg[125] was removed.  [c:/Users/Yongqin Wang/vivad/sure/sure.srcs/sources_1/bd/block1/ipshared/baf2/hdl/myip_v1_0_S00_AXIS.v:168]
WARNING: [Synth 8-6014] Unused sequential element FIFO_GEN[1].fifo_reg[124] was removed.  [c:/Users/Yongqin Wang/vivad/sure/sure.srcs/sources_1/bd/block1/ipshared/baf2/hdl/myip_v1_0_S00_AXIS.v:168]
WARNING: [Synth 8-6014] Unused sequential element FIFO_GEN[1].fifo_reg[123] was removed.  [c:/Users/Yongqin Wang/vivad/sure/sure.srcs/sources_1/bd/block1/ipshared/baf2/hdl/myip_v1_0_S00_AXIS.v:168]
WARNING: [Synth 8-6014] Unused sequential element FIFO_GEN[1].fifo_reg[122] was removed.  [c:/Users/Yongqin Wang/vivad/sure/sure.srcs/sources_1/bd/block1/ipshared/baf2/hdl/myip_v1_0_S00_AXIS.v:168]
WARNING: [Synth 8-6014] Unused sequential element FIFO_GEN[1].fifo_reg[121] was removed.  [c:/Users/Yongqin Wang/vivad/sure/sure.srcs/sources_1/bd/block1/ipshared/baf2/hdl/myip_v1_0_S00_AXIS.v:168]
WARNING: [Synth 8-6014] Unused sequential element FIFO_GEN[1].fifo_reg[120] was removed.  [c:/Users/Yongqin Wang/vivad/sure/sure.srcs/sources_1/bd/block1/ipshared/baf2/hdl/myip_v1_0_S00_AXIS.v:168]
WARNING: [Synth 8-6014] Unused sequential element FIFO_GEN[1].fifo_reg[119] was removed.  [c:/Users/Yongqin Wang/vivad/sure/sure.srcs/sources_1/bd/block1/ipshared/baf2/hdl/myip_v1_0_S00_AXIS.v:168]
WARNING: [Synth 8-6014] Unused sequential element FIFO_GEN[1].fifo_reg[118] was removed.  [c:/Users/Yongqin Wang/vivad/sure/sure.srcs/sources_1/bd/block1/ipshared/baf2/hdl/myip_v1_0_S00_AXIS.v:168]
WARNING: [Synth 8-6014] Unused sequential element FIFO_GEN[1].fifo_reg[117] was removed.  [c:/Users/Yongqin Wang/vivad/sure/sure.srcs/sources_1/bd/block1/ipshared/baf2/hdl/myip_v1_0_S00_AXIS.v:168]
WARNING: [Synth 8-6014] Unused sequential element FIFO_GEN[1].fifo_reg[116] was removed.  [c:/Users/Yongqin Wang/vivad/sure/sure.srcs/sources_1/bd/block1/ipshared/baf2/hdl/myip_v1_0_S00_AXIS.v:168]
WARNING: [Synth 8-6014] Unused sequential element FIFO_GEN[1].fifo_reg[115] was removed.  [c:/Users/Yongqin Wang/vivad/sure/sure.srcs/sources_1/bd/block1/ipshared/baf2/hdl/myip_v1_0_S00_AXIS.v:168]
WARNING: [Synth 8-6014] Unused sequential element FIFO_GEN[1].fifo_reg[114] was removed.  [c:/Users/Yongqin Wang/vivad/sure/sure.srcs/sources_1/bd/block1/ipshared/baf2/hdl/myip_v1_0_S00_AXIS.v:168]
WARNING: [Synth 8-6014] Unused sequential element FIFO_GEN[1].fifo_reg[113] was removed.  [c:/Users/Yongqin Wang/vivad/sure/sure.srcs/sources_1/bd/block1/ipshared/baf2/hdl/myip_v1_0_S00_AXIS.v:168]
WARNING: [Synth 8-6014] Unused sequential element FIFO_GEN[1].fifo_reg[112] was removed.  [c:/Users/Yongqin Wang/vivad/sure/sure.srcs/sources_1/bd/block1/ipshared/baf2/hdl/myip_v1_0_S00_AXIS.v:168]
WARNING: [Synth 8-6014] Unused sequential element FIFO_GEN[1].fifo_reg[111] was removed.  [c:/Users/Yongqin Wang/vivad/sure/sure.srcs/sources_1/bd/block1/ipshared/baf2/hdl/myip_v1_0_S00_AXIS.v:168]
WARNING: [Synth 8-6014] Unused sequential element FIFO_GEN[1].fifo_reg[110] was removed.  [c:/Users/Yongqin Wang/vivad/sure/sure.srcs/sources_1/bd/block1/ipshared/baf2/hdl/myip_v1_0_S00_AXIS.v:168]
WARNING: [Synth 8-6014] Unused sequential element FIFO_GEN[1].fifo_reg[109] was removed.  [c:/Users/Yongqin Wang/vivad/sure/sure.srcs/sources_1/bd/block1/ipshared/baf2/hdl/myip_v1_0_S00_AXIS.v:168]
WARNING: [Synth 8-6014] Unused sequential element FIFO_GEN[1].fifo_reg[108] was removed.  [c:/Users/Yongqin Wang/vivad/sure/sure.srcs/sources_1/bd/block1/ipshared/baf2/hdl/myip_v1_0_S00_AXIS.v:168]
WARNING: [Synth 8-6014] Unused sequential element FIFO_GEN[1].fifo_reg[107] was removed.  [c:/Users/Yongqin Wang/vivad/sure/sure.srcs/sources_1/bd/block1/ipshared/baf2/hdl/myip_v1_0_S00_AXIS.v:168]
WARNING: [Synth 8-6014] Unused sequential element FIFO_GEN[1].fifo_reg[106] was removed.  [c:/Users/Yongqin Wang/vivad/sure/sure.srcs/sources_1/bd/block1/ipshared/baf2/hdl/myip_v1_0_S00_AXIS.v:168]
WARNING: [Synth 8-6014] Unused sequential element FIFO_GEN[1].fifo_reg[105] was removed.  [c:/Users/Yongqin Wang/vivad/sure/sure.srcs/sources_1/bd/block1/ipshared/baf2/hdl/myip_v1_0_S00_AXIS.v:168]
WARNING: [Synth 8-6014] Unused sequential element FIFO_GEN[1].fifo_reg[104] was removed.  [c:/Users/Yongqin Wang/vivad/sure/sure.srcs/sources_1/bd/block1/ipshared/baf2/hdl/myip_v1_0_S00_AXIS.v:168]
WARNING: [Synth 8-6014] Unused sequential element FIFO_GEN[1].fifo_reg[103] was removed.  [c:/Users/Yongqin Wang/vivad/sure/sure.srcs/sources_1/bd/block1/ipshared/baf2/hdl/myip_v1_0_S00_AXIS.v:168]
WARNING: [Synth 8-6014] Unused sequential element FIFO_GEN[1].fifo_reg[102] was removed.  [c:/Users/Yongqin Wang/vivad/sure/sure.srcs/sources_1/bd/block1/ipshared/baf2/hdl/myip_v1_0_S00_AXIS.v:168]
WARNING: [Synth 8-6014] Unused sequential element FIFO_GEN[1].fifo_reg[101] was removed.  [c:/Users/Yongqin Wang/vivad/sure/sure.srcs/sources_1/bd/block1/ipshared/baf2/hdl/myip_v1_0_S00_AXIS.v:168]
WARNING: [Synth 8-6014] Unused sequential element FIFO_GEN[1].fifo_reg[100] was removed.  [c:/Users/Yongqin Wang/vivad/sure/sure.srcs/sources_1/bd/block1/ipshared/baf2/hdl/myip_v1_0_S00_AXIS.v:168]
WARNING: [Synth 8-6014] Unused sequential element FIFO_GEN[1].fifo_reg[99] was removed.  [c:/Users/Yongqin Wang/vivad/sure/sure.srcs/sources_1/bd/block1/ipshared/baf2/hdl/myip_v1_0_S00_AXIS.v:168]
WARNING: [Synth 8-6014] Unused sequential element FIFO_GEN[1].fifo_reg[98] was removed.  [c:/Users/Yongqin Wang/vivad/sure/sure.srcs/sources_1/bd/block1/ipshared/baf2/hdl/myip_v1_0_S00_AXIS.v:168]
WARNING: [Synth 8-6014] Unused sequential element FIFO_GEN[1].fifo_reg[97] was removed.  [c:/Users/Yongqin Wang/vivad/sure/sure.srcs/sources_1/bd/block1/ipshared/baf2/hdl/myip_v1_0_S00_AXIS.v:168]
WARNING: [Synth 8-6014] Unused sequential element FIFO_GEN[1].fifo_reg[96] was removed.  [c:/Users/Yongqin Wang/vivad/sure/sure.srcs/sources_1/bd/block1/ipshared/baf2/hdl/myip_v1_0_S00_AXIS.v:168]
WARNING: [Synth 8-6014] Unused sequential element FIFO_GEN[1].fifo_reg[95] was removed.  [c:/Users/Yongqin Wang/vivad/sure/sure.srcs/sources_1/bd/block1/ipshared/baf2/hdl/myip_v1_0_S00_AXIS.v:168]
WARNING: [Synth 8-6014] Unused sequential element FIFO_GEN[1].fifo_reg[94] was removed.  [c:/Users/Yongqin Wang/vivad/sure/sure.srcs/sources_1/bd/block1/ipshared/baf2/hdl/myip_v1_0_S00_AXIS.v:168]
WARNING: [Synth 8-6014] Unused sequential element FIFO_GEN[1].fifo_reg[93] was removed.  [c:/Users/Yongqin Wang/vivad/sure/sure.srcs/sources_1/bd/block1/ipshared/baf2/hdl/myip_v1_0_S00_AXIS.v:168]
WARNING: [Synth 8-6014] Unused sequential element FIFO_GEN[1].fifo_reg[92] was removed.  [c:/Users/Yongqin Wang/vivad/sure/sure.srcs/sources_1/bd/block1/ipshared/baf2/hdl/myip_v1_0_S00_AXIS.v:168]
WARNING: [Synth 8-6014] Unused sequential element FIFO_GEN[1].fifo_reg[91] was removed.  [c:/Users/Yongqin Wang/vivad/sure/sure.srcs/sources_1/bd/block1/ipshared/baf2/hdl/myip_v1_0_S00_AXIS.v:168]
WARNING: [Synth 8-6014] Unused sequential element FIFO_GEN[1].fifo_reg[90] was removed.  [c:/Users/Yongqin Wang/vivad/sure/sure.srcs/sources_1/bd/block1/ipshared/baf2/hdl/myip_v1_0_S00_AXIS.v:168]
WARNING: [Synth 8-6014] Unused sequential element FIFO_GEN[1].fifo_reg[89] was removed.  [c:/Users/Yongqin Wang/vivad/sure/sure.srcs/sources_1/bd/block1/ipshared/baf2/hdl/myip_v1_0_S00_AXIS.v:168]
WARNING: [Synth 8-6014] Unused sequential element FIFO_GEN[1].fifo_reg[88] was removed.  [c:/Users/Yongqin Wang/vivad/sure/sure.srcs/sources_1/bd/block1/ipshared/baf2/hdl/myip_v1_0_S00_AXIS.v:168]
WARNING: [Synth 8-6014] Unused sequential element FIFO_GEN[1].fifo_reg[87] was removed.  [c:/Users/Yongqin Wang/vivad/sure/sure.srcs/sources_1/bd/block1/ipshared/baf2/hdl/myip_v1_0_S00_AXIS.v:168]
WARNING: [Synth 8-6014] Unused sequential element FIFO_GEN[1].fifo_reg[86] was removed.  [c:/Users/Yongqin Wang/vivad/sure/sure.srcs/sources_1/bd/block1/ipshared/baf2/hdl/myip_v1_0_S00_AXIS.v:168]
WARNING: [Synth 8-6014] Unused sequential element FIFO_GEN[1].fifo_reg[85] was removed.  [c:/Users/Yongqin Wang/vivad/sure/sure.srcs/sources_1/bd/block1/ipshared/baf2/hdl/myip_v1_0_S00_AXIS.v:168]
WARNING: [Synth 8-6014] Unused sequential element FIFO_GEN[1].fifo_reg[84] was removed.  [c:/Users/Yongqin Wang/vivad/sure/sure.srcs/sources_1/bd/block1/ipshared/baf2/hdl/myip_v1_0_S00_AXIS.v:168]
WARNING: [Synth 8-6014] Unused sequential element FIFO_GEN[1].fifo_reg[83] was removed.  [c:/Users/Yongqin Wang/vivad/sure/sure.srcs/sources_1/bd/block1/ipshared/baf2/hdl/myip_v1_0_S00_AXIS.v:168]
WARNING: [Synth 8-6014] Unused sequential element FIFO_GEN[2].fifo_reg[127] was removed.  [c:/Users/Yongqin Wang/vivad/sure/sure.srcs/sources_1/bd/block1/ipshared/baf2/hdl/myip_v1_0_S00_AXIS.v:168]
WARNING: [Synth 8-6014] Unused sequential element FIFO_GEN[2].fifo_reg[126] was removed.  [c:/Users/Yongqin Wang/vivad/sure/sure.srcs/sources_1/bd/block1/ipshared/baf2/hdl/myip_v1_0_S00_AXIS.v:168]
WARNING: [Synth 8-6014] Unused sequential element FIFO_GEN[2].fifo_reg[125] was removed.  [c:/Users/Yongqin Wang/vivad/sure/sure.srcs/sources_1/bd/block1/ipshared/baf2/hdl/myip_v1_0_S00_AXIS.v:168]
WARNING: [Synth 8-6014] Unused sequential element FIFO_GEN[2].fifo_reg[124] was removed.  [c:/Users/Yongqin Wang/vivad/sure/sure.srcs/sources_1/bd/block1/ipshared/baf2/hdl/myip_v1_0_S00_AXIS.v:168]
WARNING: [Synth 8-6014] Unused sequential element FIFO_GEN[2].fifo_reg[123] was removed.  [c:/Users/Yongqin Wang/vivad/sure/sure.srcs/sources_1/bd/block1/ipshared/baf2/hdl/myip_v1_0_S00_AXIS.v:168]
WARNING: [Synth 8-6014] Unused sequential element FIFO_GEN[2].fifo_reg[122] was removed.  [c:/Users/Yongqin Wang/vivad/sure/sure.srcs/sources_1/bd/block1/ipshared/baf2/hdl/myip_v1_0_S00_AXIS.v:168]
WARNING: [Synth 8-6014] Unused sequential element FIFO_GEN[2].fifo_reg[121] was removed.  [c:/Users/Yongqin Wang/vivad/sure/sure.srcs/sources_1/bd/block1/ipshared/baf2/hdl/myip_v1_0_S00_AXIS.v:168]
WARNING: [Synth 8-6014] Unused sequential element FIFO_GEN[2].fifo_reg[120] was removed.  [c:/Users/Yongqin Wang/vivad/sure/sure.srcs/sources_1/bd/block1/ipshared/baf2/hdl/myip_v1_0_S00_AXIS.v:168]
WARNING: [Synth 8-6014] Unused sequential element FIFO_GEN[2].fifo_reg[119] was removed.  [c:/Users/Yongqin Wang/vivad/sure/sure.srcs/sources_1/bd/block1/ipshared/baf2/hdl/myip_v1_0_S00_AXIS.v:168]
WARNING: [Synth 8-6014] Unused sequential element FIFO_GEN[2].fifo_reg[118] was removed.  [c:/Users/Yongqin Wang/vivad/sure/sure.srcs/sources_1/bd/block1/ipshared/baf2/hdl/myip_v1_0_S00_AXIS.v:168]
INFO: [Common 17-14] Message 'Synth 8-6014' appears 100 times and further instances of the messages will be disabled. Use the Tcl command set_msg_config to change the current settings.
WARNING: [Synth 8-3848] Net bias_buddle in module/entity myip_v1_0_S00_AXIS does not have driver. [c:/Users/Yongqin Wang/vivad/sure/sure.srcs/sources_1/bd/block1/ipshared/baf2/hdl/myip_v1_0_S00_AXIS.v:176]
INFO: [Synth 8-256] done synthesizing module 'myip_v1_0_S00_AXIS' (3#1) [c:/Users/Yongqin Wang/vivad/sure/sure.srcs/sources_1/bd/block1/ipshared/baf2/hdl/myip_v1_0_S00_AXIS.v:4]
INFO: [Synth 8-638] synthesizing module 'myip_v1_0_M00_AXIS' [c:/Users/Yongqin Wang/vivad/sure/sure.srcs/sources_1/bd/block1/ipshared/baf2/hdl/myip_v1_0_M00_AXIS.v:4]
	Parameter C_M_AXIS_TDATA_WIDTH bound to: 32 - type: integer 
	Parameter C_M_START_COUNT bound to: 32 - type: integer 
	Parameter NUMBER_OF_OUTPUT_WORDS bound to: 8 - type: integer 
	Parameter WAIT_COUNT_BITS bound to: 5 - type: integer 
	Parameter bit_num bound to: 4 - type: integer 
	Parameter IDLE bound to: 2'b00 
	Parameter INIT_COUNTER bound to: 2'b01 
	Parameter SEND_STREAM bound to: 2'b10 
INFO: [Synth 8-155] case statement is not full and has no default [c:/Users/Yongqin Wang/vivad/sure/sure.srcs/sources_1/bd/block1/ipshared/baf2/hdl/myip_v1_0_M00_AXIS.v:106]
INFO: [Synth 8-256] done synthesizing module 'myip_v1_0_M00_AXIS' (4#1) [c:/Users/Yongqin Wang/vivad/sure/sure.srcs/sources_1/bd/block1/ipshared/baf2/hdl/myip_v1_0_M00_AXIS.v:4]
INFO: [Synth 8-256] done synthesizing module 'myip_v1_0' (5#1) [c:/Users/Yongqin Wang/vivad/sure/sure.srcs/sources_1/bd/block1/ipshared/baf2/hdl/myip_v1_0.v:4]
INFO: [Synth 8-256] done synthesizing module 'block1_myip_0_2' (6#1) [c:/Users/Yongqin Wang/vivad/sure/sure.srcs/sources_1/bd/block1/ip/block1_myip_0_2/synth/block1_myip_0_2.v:57]
WARNING: [Synth 8-3331] design myip_v1_0_M00_AXIS has unconnected port tensorOut[63]
WARNING: [Synth 8-3331] design myip_v1_0_M00_AXIS has unconnected port tensorOut[62]
WARNING: [Synth 8-3331] design myip_v1_0_M00_AXIS has unconnected port tensorOut[61]
WARNING: [Synth 8-3331] design myip_v1_0_M00_AXIS has unconnected port tensorOut[60]
WARNING: [Synth 8-3331] design myip_v1_0_M00_AXIS has unconnected port tensorOut[59]
WARNING: [Synth 8-3331] design myip_v1_0_M00_AXIS has unconnected port tensorOut[58]
WARNING: [Synth 8-3331] design myip_v1_0_M00_AXIS has unconnected port tensorOut[57]
WARNING: [Synth 8-3331] design myip_v1_0_M00_AXIS has unconnected port tensorOut[56]
WARNING: [Synth 8-3331] design myip_v1_0_M00_AXIS has unconnected port tensorOut[55]
WARNING: [Synth 8-3331] design myip_v1_0_M00_AXIS has unconnected port tensorOut[54]
WARNING: [Synth 8-3331] design myip_v1_0_M00_AXIS has unconnected port tensorOut[53]
WARNING: [Synth 8-3331] design myip_v1_0_M00_AXIS has unconnected port tensorOut[52]
WARNING: [Synth 8-3331] design myip_v1_0_M00_AXIS has unconnected port tensorOut[51]
WARNING: [Synth 8-3331] design myip_v1_0_M00_AXIS has unconnected port tensorOut[50]
WARNING: [Synth 8-3331] design myip_v1_0_M00_AXIS has unconnected port tensorOut[49]
WARNING: [Synth 8-3331] design myip_v1_0_M00_AXIS has unconnected port tensorOut[48]
WARNING: [Synth 8-3331] design myip_v1_0_M00_AXIS has unconnected port tensorOut[47]
WARNING: [Synth 8-3331] design myip_v1_0_M00_AXIS has unconnected port tensorOut[46]
WARNING: [Synth 8-3331] design myip_v1_0_M00_AXIS has unconnected port tensorOut[45]
WARNING: [Synth 8-3331] design myip_v1_0_M00_AXIS has unconnected port tensorOut[44]
WARNING: [Synth 8-3331] design myip_v1_0_M00_AXIS has unconnected port tensorOut[43]
WARNING: [Synth 8-3331] design myip_v1_0_M00_AXIS has unconnected port tensorOut[42]
WARNING: [Synth 8-3331] design myip_v1_0_M00_AXIS has unconnected port tensorOut[41]
WARNING: [Synth 8-3331] design myip_v1_0_M00_AXIS has unconnected port tensorOut[40]
WARNING: [Synth 8-3331] design myip_v1_0_M00_AXIS has unconnected port tensorOut[39]
WARNING: [Synth 8-3331] design myip_v1_0_M00_AXIS has unconnected port tensorOut[38]
WARNING: [Synth 8-3331] design myip_v1_0_M00_AXIS has unconnected port tensorOut[37]
WARNING: [Synth 8-3331] design myip_v1_0_M00_AXIS has unconnected port tensorOut[36]
WARNING: [Synth 8-3331] design myip_v1_0_M00_AXIS has unconnected port tensorOut[35]
WARNING: [Synth 8-3331] design myip_v1_0_M00_AXIS has unconnected port tensorOut[34]
WARNING: [Synth 8-3331] design myip_v1_0_M00_AXIS has unconnected port tensorOut[33]
WARNING: [Synth 8-3331] design myip_v1_0_M00_AXIS has unconnected port tensorOut[32]
WARNING: [Synth 8-3331] design tensor_slice has unconnected port xcfg_reg[11]
WARNING: [Synth 8-3331] design tensor_slice has unconnected port xcfg_reg[10]
WARNING: [Synth 8-3331] design tensor_slice has unconnected port xcfg_reg[9]
WARNING: [Synth 8-3331] design tensor_slice has unconnected port xcfg_reg[8]
WARNING: [Synth 8-3331] design tensor_slice has unconnected port xcfg_reg[7]
WARNING: [Synth 8-3331] design tensor_slice has unconnected port xcfg_reg[6]
WARNING: [Synth 8-3331] design tensor_slice has unconnected port xcfg_reg[5]
WARNING: [Synth 8-3331] design tensor_slice has unconnected port xcfg_reg[4]
WARNING: [Synth 8-3331] design tensor_slice has unconnected port xcfg_reg[3]
WARNING: [Synth 8-3331] design tensor_slice has unconnected port xcfg_reg[0]
WARNING: [Synth 8-3331] design tensor_slice has unconnected port xweight[255]
WARNING: [Synth 8-3331] design tensor_slice has unconnected port xweight[191]
WARNING: [Synth 8-3331] design tensor_slice has unconnected port xweight[127]
WARNING: [Synth 8-3331] design tensor_slice has unconnected port xweight[63]
WARNING: [Synth 8-3331] design myip_v1_0_S00_AXIS has unconnected port S_AXIS_TSTRB[3]
WARNING: [Synth 8-3331] design myip_v1_0_S00_AXIS has unconnected port S_AXIS_TSTRB[2]
WARNING: [Synth 8-3331] design myip_v1_0_S00_AXIS has unconnected port S_AXIS_TSTRB[1]
WARNING: [Synth 8-3331] design myip_v1_0_S00_AXIS has unconnected port S_AXIS_TSTRB[0]
---------------------------------------------------------------------------------
Finished RTL Elaboration : Time (s): cpu = 00:00:06 ; elapsed = 00:00:07 . Memory (MB): peak = 424.188 ; gain = 168.664
---------------------------------------------------------------------------------

Report Check Netlist: 
+------+------------------+-------+---------+-------+------------------+
|      |Item              |Errors |Warnings |Status |Description       |
+------+------------------+-------+---------+-------+------------------+
|1     |multi_driven_nets |      0|        0|Passed |Multi driven nets |
+------+------------------+-------+---------+-------+------------------+
WARNING: [Synth 8-3295] tying undriven pin tc1:bias8[63] to constant 0 [c:/Users/Yongqin Wang/vivad/sure/sure.srcs/sources_1/bd/block1/ipshared/baf2/hdl/myip_v1_0_S00_AXIS.v:193]
WARNING: [Synth 8-3295] tying undriven pin tc1:bias8[62] to constant 0 [c:/Users/Yongqin Wang/vivad/sure/sure.srcs/sources_1/bd/block1/ipshared/baf2/hdl/myip_v1_0_S00_AXIS.v:193]
WARNING: [Synth 8-3295] tying undriven pin tc1:bias8[61] to constant 0 [c:/Users/Yongqin Wang/vivad/sure/sure.srcs/sources_1/bd/block1/ipshared/baf2/hdl/myip_v1_0_S00_AXIS.v:193]
WARNING: [Synth 8-3295] tying undriven pin tc1:bias8[60] to constant 0 [c:/Users/Yongqin Wang/vivad/sure/sure.srcs/sources_1/bd/block1/ipshared/baf2/hdl/myip_v1_0_S00_AXIS.v:193]
WARNING: [Synth 8-3295] tying undriven pin tc1:bias8[59] to constant 0 [c:/Users/Yongqin Wang/vivad/sure/sure.srcs/sources_1/bd/block1/ipshared/baf2/hdl/myip_v1_0_S00_AXIS.v:193]
WARNING: [Synth 8-3295] tying undriven pin tc1:bias8[58] to constant 0 [c:/Users/Yongqin Wang/vivad/sure/sure.srcs/sources_1/bd/block1/ipshared/baf2/hdl/myip_v1_0_S00_AXIS.v:193]
WARNING: [Synth 8-3295] tying undriven pin tc1:bias8[57] to constant 0 [c:/Users/Yongqin Wang/vivad/sure/sure.srcs/sources_1/bd/block1/ipshared/baf2/hdl/myip_v1_0_S00_AXIS.v:193]
WARNING: [Synth 8-3295] tying undriven pin tc1:bias8[56] to constant 0 [c:/Users/Yongqin Wang/vivad/sure/sure.srcs/sources_1/bd/block1/ipshared/baf2/hdl/myip_v1_0_S00_AXIS.v:193]
WARNING: [Synth 8-3295] tying undriven pin tc1:bias8[55] to constant 0 [c:/Users/Yongqin Wang/vivad/sure/sure.srcs/sources_1/bd/block1/ipshared/baf2/hdl/myip_v1_0_S00_AXIS.v:193]
WARNING: [Synth 8-3295] tying undriven pin tc1:bias8[54] to constant 0 [c:/Users/Yongqin Wang/vivad/sure/sure.srcs/sources_1/bd/block1/ipshared/baf2/hdl/myip_v1_0_S00_AXIS.v:193]
WARNING: [Synth 8-3295] tying undriven pin tc1:bias8[53] to constant 0 [c:/Users/Yongqin Wang/vivad/sure/sure.srcs/sources_1/bd/block1/ipshared/baf2/hdl/myip_v1_0_S00_AXIS.v:193]
WARNING: [Synth 8-3295] tying undriven pin tc1:bias8[52] to constant 0 [c:/Users/Yongqin Wang/vivad/sure/sure.srcs/sources_1/bd/block1/ipshared/baf2/hdl/myip_v1_0_S00_AXIS.v:193]
WARNING: [Synth 8-3295] tying undriven pin tc1:bias8[51] to constant 0 [c:/Users/Yongqin Wang/vivad/sure/sure.srcs/sources_1/bd/block1/ipshared/baf2/hdl/myip_v1_0_S00_AXIS.v:193]
WARNING: [Synth 8-3295] tying undriven pin tc1:bias8[50] to constant 0 [c:/Users/Yongqin Wang/vivad/sure/sure.srcs/sources_1/bd/block1/ipshared/baf2/hdl/myip_v1_0_S00_AXIS.v:193]
WARNING: [Synth 8-3295] tying undriven pin tc1:bias8[49] to constant 0 [c:/Users/Yongqin Wang/vivad/sure/sure.srcs/sources_1/bd/block1/ipshared/baf2/hdl/myip_v1_0_S00_AXIS.v:193]
WARNING: [Synth 8-3295] tying undriven pin tc1:bias8[48] to constant 0 [c:/Users/Yongqin Wang/vivad/sure/sure.srcs/sources_1/bd/block1/ipshared/baf2/hdl/myip_v1_0_S00_AXIS.v:193]
WARNING: [Synth 8-3295] tying undriven pin tc1:bias8[47] to constant 0 [c:/Users/Yongqin Wang/vivad/sure/sure.srcs/sources_1/bd/block1/ipshared/baf2/hdl/myip_v1_0_S00_AXIS.v:193]
WARNING: [Synth 8-3295] tying undriven pin tc1:bias8[46] to constant 0 [c:/Users/Yongqin Wang/vivad/sure/sure.srcs/sources_1/bd/block1/ipshared/baf2/hdl/myip_v1_0_S00_AXIS.v:193]
WARNING: [Synth 8-3295] tying undriven pin tc1:bias8[45] to constant 0 [c:/Users/Yongqin Wang/vivad/sure/sure.srcs/sources_1/bd/block1/ipshared/baf2/hdl/myip_v1_0_S00_AXIS.v:193]
WARNING: [Synth 8-3295] tying undriven pin tc1:bias8[44] to constant 0 [c:/Users/Yongqin Wang/vivad/sure/sure.srcs/sources_1/bd/block1/ipshared/baf2/hdl/myip_v1_0_S00_AXIS.v:193]
WARNING: [Synth 8-3295] tying undriven pin tc1:bias8[43] to constant 0 [c:/Users/Yongqin Wang/vivad/sure/sure.srcs/sources_1/bd/block1/ipshared/baf2/hdl/myip_v1_0_S00_AXIS.v:193]
WARNING: [Synth 8-3295] tying undriven pin tc1:bias8[42] to constant 0 [c:/Users/Yongqin Wang/vivad/sure/sure.srcs/sources_1/bd/block1/ipshared/baf2/hdl/myip_v1_0_S00_AXIS.v:193]
WARNING: [Synth 8-3295] tying undriven pin tc1:bias8[41] to constant 0 [c:/Users/Yongqin Wang/vivad/sure/sure.srcs/sources_1/bd/block1/ipshared/baf2/hdl/myip_v1_0_S00_AXIS.v:193]
WARNING: [Synth 8-3295] tying undriven pin tc1:bias8[40] to constant 0 [c:/Users/Yongqin Wang/vivad/sure/sure.srcs/sources_1/bd/block1/ipshared/baf2/hdl/myip_v1_0_S00_AXIS.v:193]
WARNING: [Synth 8-3295] tying undriven pin tc1:bias8[39] to constant 0 [c:/Users/Yongqin Wang/vivad/sure/sure.srcs/sources_1/bd/block1/ipshared/baf2/hdl/myip_v1_0_S00_AXIS.v:193]
WARNING: [Synth 8-3295] tying undriven pin tc1:bias8[38] to constant 0 [c:/Users/Yongqin Wang/vivad/sure/sure.srcs/sources_1/bd/block1/ipshared/baf2/hdl/myip_v1_0_S00_AXIS.v:193]
WARNING: [Synth 8-3295] tying undriven pin tc1:bias8[37] to constant 0 [c:/Users/Yongqin Wang/vivad/sure/sure.srcs/sources_1/bd/block1/ipshared/baf2/hdl/myip_v1_0_S00_AXIS.v:193]
WARNING: [Synth 8-3295] tying undriven pin tc1:bias8[36] to constant 0 [c:/Users/Yongqin Wang/vivad/sure/sure.srcs/sources_1/bd/block1/ipshared/baf2/hdl/myip_v1_0_S00_AXIS.v:193]
WARNING: [Synth 8-3295] tying undriven pin tc1:bias8[35] to constant 0 [c:/Users/Yongqin Wang/vivad/sure/sure.srcs/sources_1/bd/block1/ipshared/baf2/hdl/myip_v1_0_S00_AXIS.v:193]
WARNING: [Synth 8-3295] tying undriven pin tc1:bias8[34] to constant 0 [c:/Users/Yongqin Wang/vivad/sure/sure.srcs/sources_1/bd/block1/ipshared/baf2/hdl/myip_v1_0_S00_AXIS.v:193]
WARNING: [Synth 8-3295] tying undriven pin tc1:bias8[33] to constant 0 [c:/Users/Yongqin Wang/vivad/sure/sure.srcs/sources_1/bd/block1/ipshared/baf2/hdl/myip_v1_0_S00_AXIS.v:193]
WARNING: [Synth 8-3295] tying undriven pin tc1:bias8[32] to constant 0 [c:/Users/Yongqin Wang/vivad/sure/sure.srcs/sources_1/bd/block1/ipshared/baf2/hdl/myip_v1_0_S00_AXIS.v:193]
WARNING: [Synth 8-3295] tying undriven pin tc1:bias8[31] to constant 0 [c:/Users/Yongqin Wang/vivad/sure/sure.srcs/sources_1/bd/block1/ipshared/baf2/hdl/myip_v1_0_S00_AXIS.v:193]
WARNING: [Synth 8-3295] tying undriven pin tc1:bias8[30] to constant 0 [c:/Users/Yongqin Wang/vivad/sure/sure.srcs/sources_1/bd/block1/ipshared/baf2/hdl/myip_v1_0_S00_AXIS.v:193]
WARNING: [Synth 8-3295] tying undriven pin tc1:bias8[29] to constant 0 [c:/Users/Yongqin Wang/vivad/sure/sure.srcs/sources_1/bd/block1/ipshared/baf2/hdl/myip_v1_0_S00_AXIS.v:193]
WARNING: [Synth 8-3295] tying undriven pin tc1:bias8[28] to constant 0 [c:/Users/Yongqin Wang/vivad/sure/sure.srcs/sources_1/bd/block1/ipshared/baf2/hdl/myip_v1_0_S00_AXIS.v:193]
WARNING: [Synth 8-3295] tying undriven pin tc1:bias8[27] to constant 0 [c:/Users/Yongqin Wang/vivad/sure/sure.srcs/sources_1/bd/block1/ipshared/baf2/hdl/myip_v1_0_S00_AXIS.v:193]
WARNING: [Synth 8-3295] tying undriven pin tc1:bias8[26] to constant 0 [c:/Users/Yongqin Wang/vivad/sure/sure.srcs/sources_1/bd/block1/ipshared/baf2/hdl/myip_v1_0_S00_AXIS.v:193]
WARNING: [Synth 8-3295] tying undriven pin tc1:bias8[25] to constant 0 [c:/Users/Yongqin Wang/vivad/sure/sure.srcs/sources_1/bd/block1/ipshared/baf2/hdl/myip_v1_0_S00_AXIS.v:193]
WARNING: [Synth 8-3295] tying undriven pin tc1:bias8[24] to constant 0 [c:/Users/Yongqin Wang/vivad/sure/sure.srcs/sources_1/bd/block1/ipshared/baf2/hdl/myip_v1_0_S00_AXIS.v:193]
WARNING: [Synth 8-3295] tying undriven pin tc1:bias8[23] to constant 0 [c:/Users/Yongqin Wang/vivad/sure/sure.srcs/sources_1/bd/block1/ipshared/baf2/hdl/myip_v1_0_S00_AXIS.v:193]
WARNING: [Synth 8-3295] tying undriven pin tc1:bias8[22] to constant 0 [c:/Users/Yongqin Wang/vivad/sure/sure.srcs/sources_1/bd/block1/ipshared/baf2/hdl/myip_v1_0_S00_AXIS.v:193]
WARNING: [Synth 8-3295] tying undriven pin tc1:bias8[21] to constant 0 [c:/Users/Yongqin Wang/vivad/sure/sure.srcs/sources_1/bd/block1/ipshared/baf2/hdl/myip_v1_0_S00_AXIS.v:193]
WARNING: [Synth 8-3295] tying undriven pin tc1:bias8[20] to constant 0 [c:/Users/Yongqin Wang/vivad/sure/sure.srcs/sources_1/bd/block1/ipshared/baf2/hdl/myip_v1_0_S00_AXIS.v:193]
WARNING: [Synth 8-3295] tying undriven pin tc1:bias8[19] to constant 0 [c:/Users/Yongqin Wang/vivad/sure/sure.srcs/sources_1/bd/block1/ipshared/baf2/hdl/myip_v1_0_S00_AXIS.v:193]
WARNING: [Synth 8-3295] tying undriven pin tc1:bias8[18] to constant 0 [c:/Users/Yongqin Wang/vivad/sure/sure.srcs/sources_1/bd/block1/ipshared/baf2/hdl/myip_v1_0_S00_AXIS.v:193]
WARNING: [Synth 8-3295] tying undriven pin tc1:bias8[17] to constant 0 [c:/Users/Yongqin Wang/vivad/sure/sure.srcs/sources_1/bd/block1/ipshared/baf2/hdl/myip_v1_0_S00_AXIS.v:193]
WARNING: [Synth 8-3295] tying undriven pin tc1:bias8[16] to constant 0 [c:/Users/Yongqin Wang/vivad/sure/sure.srcs/sources_1/bd/block1/ipshared/baf2/hdl/myip_v1_0_S00_AXIS.v:193]
WARNING: [Synth 8-3295] tying undriven pin tc1:bias8[15] to constant 0 [c:/Users/Yongqin Wang/vivad/sure/sure.srcs/sources_1/bd/block1/ipshared/baf2/hdl/myip_v1_0_S00_AXIS.v:193]
WARNING: [Synth 8-3295] tying undriven pin tc1:bias8[14] to constant 0 [c:/Users/Yongqin Wang/vivad/sure/sure.srcs/sources_1/bd/block1/ipshared/baf2/hdl/myip_v1_0_S00_AXIS.v:193]
WARNING: [Synth 8-3295] tying undriven pin tc1:bias8[13] to constant 0 [c:/Users/Yongqin Wang/vivad/sure/sure.srcs/sources_1/bd/block1/ipshared/baf2/hdl/myip_v1_0_S00_AXIS.v:193]
WARNING: [Synth 8-3295] tying undriven pin tc1:bias8[12] to constant 0 [c:/Users/Yongqin Wang/vivad/sure/sure.srcs/sources_1/bd/block1/ipshared/baf2/hdl/myip_v1_0_S00_AXIS.v:193]
WARNING: [Synth 8-3295] tying undriven pin tc1:bias8[11] to constant 0 [c:/Users/Yongqin Wang/vivad/sure/sure.srcs/sources_1/bd/block1/ipshared/baf2/hdl/myip_v1_0_S00_AXIS.v:193]
WARNING: [Synth 8-3295] tying undriven pin tc1:bias8[10] to constant 0 [c:/Users/Yongqin Wang/vivad/sure/sure.srcs/sources_1/bd/block1/ipshared/baf2/hdl/myip_v1_0_S00_AXIS.v:193]
WARNING: [Synth 8-3295] tying undriven pin tc1:bias8[9] to constant 0 [c:/Users/Yongqin Wang/vivad/sure/sure.srcs/sources_1/bd/block1/ipshared/baf2/hdl/myip_v1_0_S00_AXIS.v:193]
WARNING: [Synth 8-3295] tying undriven pin tc1:bias8[8] to constant 0 [c:/Users/Yongqin Wang/vivad/sure/sure.srcs/sources_1/bd/block1/ipshared/baf2/hdl/myip_v1_0_S00_AXIS.v:193]
WARNING: [Synth 8-3295] tying undriven pin tc1:bias8[7] to constant 0 [c:/Users/Yongqin Wang/vivad/sure/sure.srcs/sources_1/bd/block1/ipshared/baf2/hdl/myip_v1_0_S00_AXIS.v:193]
WARNING: [Synth 8-3295] tying undriven pin tc1:bias8[6] to constant 0 [c:/Users/Yongqin Wang/vivad/sure/sure.srcs/sources_1/bd/block1/ipshared/baf2/hdl/myip_v1_0_S00_AXIS.v:193]
WARNING: [Synth 8-3295] tying undriven pin tc1:bias8[5] to constant 0 [c:/Users/Yongqin Wang/vivad/sure/sure.srcs/sources_1/bd/block1/ipshared/baf2/hdl/myip_v1_0_S00_AXIS.v:193]
WARNING: [Synth 8-3295] tying undriven pin tc1:bias8[4] to constant 0 [c:/Users/Yongqin Wang/vivad/sure/sure.srcs/sources_1/bd/block1/ipshared/baf2/hdl/myip_v1_0_S00_AXIS.v:193]
WARNING: [Synth 8-3295] tying undriven pin tc1:bias8[3] to constant 0 [c:/Users/Yongqin Wang/vivad/sure/sure.srcs/sources_1/bd/block1/ipshared/baf2/hdl/myip_v1_0_S00_AXIS.v:193]
WARNING: [Synth 8-3295] tying undriven pin tc1:bias8[2] to constant 0 [c:/Users/Yongqin Wang/vivad/sure/sure.srcs/sources_1/bd/block1/ipshared/baf2/hdl/myip_v1_0_S00_AXIS.v:193]
WARNING: [Synth 8-3295] tying undriven pin tc1:bias8[1] to constant 0 [c:/Users/Yongqin Wang/vivad/sure/sure.srcs/sources_1/bd/block1/ipshared/baf2/hdl/myip_v1_0_S00_AXIS.v:193]
WARNING: [Synth 8-3295] tying undriven pin tc1:bias8[0] to constant 0 [c:/Users/Yongqin Wang/vivad/sure/sure.srcs/sources_1/bd/block1/ipshared/baf2/hdl/myip_v1_0_S00_AXIS.v:193]
---------------------------------------------------------------------------------
Finished RTL Optimization Phase 1 : Time (s): cpu = 00:00:07 ; elapsed = 00:00:07 . Memory (MB): peak = 424.188 ; gain = 168.664
---------------------------------------------------------------------------------
INFO: [Device 21-403] Loading part xc7z020clg484-1
INFO: [Project 1-570] Preparing netlist for logic optimization

Processing XDC Constraints
Initializing timing engine
Completed Processing XDC Constraints

INFO: [Project 1-111] Unisim Transformation Summary:
No Unisim elements were transformed.

Constraint Validation Runtime : Time (s): cpu = 00:00:01 ; elapsed = 00:00:00.120 . Memory (MB): peak = 782.270 ; gain = 1.922
---------------------------------------------------------------------------------
Finished Constraint Validation : Time (s): cpu = 00:00:19 ; elapsed = 00:00:21 . Memory (MB): peak = 782.270 ; gain = 526.746
---------------------------------------------------------------------------------
---------------------------------------------------------------------------------
Start Loading Part and Timing Information
---------------------------------------------------------------------------------
Loading part: xc7z020clg484-1
---------------------------------------------------------------------------------
Finished Loading Part and Timing Information : Time (s): cpu = 00:00:19 ; elapsed = 00:00:21 . Memory (MB): peak = 782.270 ; gain = 526.746
---------------------------------------------------------------------------------
---------------------------------------------------------------------------------
Start Applying 'set_property' XDC Constraints
---------------------------------------------------------------------------------
---------------------------------------------------------------------------------
Finished applying 'set_property' XDC Constraints : Time (s): cpu = 00:00:19 ; elapsed = 00:00:21 . Memory (MB): peak = 782.270 ; gain = 526.746
---------------------------------------------------------------------------------
INFO: [Synth 8-5544] ROM "sp_reg[0]" won't be mapped to Block RAM because address size (4) smaller than threshold (5)
INFO: [Synth 8-5544] ROM "sp_reg[1]" won't be mapped to Block RAM because address size (4) smaller than threshold (5)
INFO: [Synth 8-5544] ROM "sp_reg[2]" won't be mapped to Block RAM because address size (4) smaller than threshold (5)
INFO: [Synth 8-5544] ROM "sp_reg[3]" won't be mapped to Block RAM because address size (4) smaller than threshold (5)
INFO: [Synth 8-5544] ROM "sp_reg[4]" won't be mapped to Block RAM because address size (4) smaller than threshold (5)
INFO: [Synth 8-5544] ROM "sp_reg[5]" won't be mapped to Block RAM because address size (4) smaller than threshold (5)
INFO: [Synth 8-5544] ROM "sp_reg[6]" won't be mapped to Block RAM because address size (4) smaller than threshold (5)
INFO: [Synth 8-5544] ROM "sp_reg[7]" won't be mapped to Block RAM because address size (4) smaller than threshold (5)
INFO: [Synth 8-5544] ROM "sp_reg[8]" won't be mapped to Block RAM because address size (4) smaller than threshold (5)
INFO: [Synth 8-5544] ROM "sp_reg[9]" won't be mapped to Block RAM because address size (4) smaller than threshold (5)
INFO: [Synth 8-5544] ROM "sp_reg[10]" won't be mapped to Block RAM because address size (4) smaller than threshold (5)
INFO: [Synth 8-5544] ROM "sp_reg[11]" won't be mapped to Block RAM because address size (4) smaller than threshold (5)
INFO: [Synth 8-5544] ROM "sp_reg[12]" won't be mapped to Block RAM because address size (4) smaller than threshold (5)
INFO: [Synth 8-5544] ROM "sp_reg[13]" won't be mapped to Block RAM because address size (4) smaller than threshold (5)
INFO: [Synth 8-5544] ROM "sp_reg[14]" won't be mapped to Block RAM because address size (4) smaller than threshold (5)
INFO: [Synth 8-5544] ROM "sp_reg[15]" won't be mapped to Block RAM because address size (4) smaller than threshold (5)
INFO: [Synth 8-5546] ROM "fifo_reg[82]" won't be mapped to RAM because it is too sparse
INFO: [Synth 8-5546] ROM "fifo_reg[81]" won't be mapped to RAM because it is too sparse
INFO: [Synth 8-5546] ROM "fifo_reg[80]" won't be mapped to RAM because it is too sparse
INFO: [Synth 8-5546] ROM "fifo_reg[79]" won't be mapped to RAM because it is too sparse
INFO: [Synth 8-5546] ROM "fifo_reg[78]" won't be mapped to RAM because it is too sparse
INFO: [Synth 8-5546] ROM "fifo_reg[77]" won't be mapped to RAM because it is too sparse
INFO: [Synth 8-5546] ROM "fifo_reg[76]" won't be mapped to RAM because it is too sparse
INFO: [Synth 8-5546] ROM "fifo_reg[75]" won't be mapped to RAM because it is too sparse
INFO: [Synth 8-5546] ROM "fifo_reg[74]" won't be mapped to RAM because it is too sparse
INFO: [Synth 8-5546] ROM "fifo_reg[73]" won't be mapped to RAM because it is too sparse
INFO: [Synth 8-5546] ROM "fifo_reg[72]" won't be mapped to RAM because it is too sparse
INFO: [Synth 8-5546] ROM "fifo_reg[71]" won't be mapped to RAM because it is too sparse
INFO: [Synth 8-5546] ROM "fifo_reg[70]" won't be mapped to RAM because it is too sparse
INFO: [Synth 8-5546] ROM "fifo_reg[69]" won't be mapped to RAM because it is too sparse
INFO: [Synth 8-5546] ROM "fifo_reg[68]" won't be mapped to RAM because it is too sparse
INFO: [Synth 8-5546] ROM "fifo_reg[67]" won't be mapped to RAM because it is too sparse
INFO: [Synth 8-5546] ROM "fifo_reg[66]" won't be mapped to RAM because it is too sparse
INFO: [Synth 8-5546] ROM "fifo_reg[65]" won't be mapped to RAM because it is too sparse
INFO: [Synth 8-5546] ROM "fifo_reg[64]" won't be mapped to RAM because it is too sparse
INFO: [Synth 8-5546] ROM "fifo_reg[63]" won't be mapped to RAM because it is too sparse
INFO: [Synth 8-5546] ROM "fifo_reg[62]" won't be mapped to RAM because it is too sparse
INFO: [Synth 8-5546] ROM "fifo_reg[61]" won't be mapped to RAM because it is too sparse
INFO: [Synth 8-5546] ROM "fifo_reg[60]" won't be mapped to RAM because it is too sparse
INFO: [Synth 8-5546] ROM "fifo_reg[59]" won't be mapped to RAM because it is too sparse
INFO: [Synth 8-5546] ROM "fifo_reg[58]" won't be mapped to RAM because it is too sparse
INFO: [Synth 8-5546] ROM "fifo_reg[57]" won't be mapped to RAM because it is too sparse
INFO: [Synth 8-5546] ROM "fifo_reg[56]" won't be mapped to RAM because it is too sparse
INFO: [Synth 8-5546] ROM "fifo_reg[55]" won't be mapped to RAM because it is too sparse
INFO: [Synth 8-5546] ROM "fifo_reg[54]" won't be mapped to RAM because it is too sparse
INFO: [Synth 8-5546] ROM "fifo_reg[53]" won't be mapped to RAM because it is too sparse
INFO: [Synth 8-5546] ROM "fifo_reg[52]" won't be mapped to RAM because it is too sparse
INFO: [Synth 8-5546] ROM "fifo_reg[51]" won't be mapped to RAM because it is too sparse
INFO: [Synth 8-5546] ROM "fifo_reg[50]" won't be mapped to RAM because it is too sparse
INFO: [Synth 8-5546] ROM "fifo_reg[49]" won't be mapped to RAM because it is too sparse
INFO: [Synth 8-5546] ROM "fifo_reg[48]" won't be mapped to RAM because it is too sparse
INFO: [Synth 8-5546] ROM "fifo_reg[47]" won't be mapped to RAM because it is too sparse
INFO: [Synth 8-5546] ROM "fifo_reg[46]" won't be mapped to RAM because it is too sparse
INFO: [Synth 8-5546] ROM "fifo_reg[45]" won't be mapped to RAM because it is too sparse
INFO: [Synth 8-5546] ROM "fifo_reg[44]" won't be mapped to RAM because it is too sparse
INFO: [Synth 8-5546] ROM "fifo_reg[43]" won't be mapped to RAM because it is too sparse
INFO: [Synth 8-5546] ROM "fifo_reg[42]" won't be mapped to RAM because it is too sparse
INFO: [Synth 8-5546] ROM "fifo_reg[41]" won't be mapped to RAM because it is too sparse
INFO: [Synth 8-5546] ROM "fifo_reg[40]" won't be mapped to RAM because it is too sparse
INFO: [Synth 8-5546] ROM "fifo_reg[39]" won't be mapped to RAM because it is too sparse
INFO: [Synth 8-5546] ROM "fifo_reg[38]" won't be mapped to RAM because it is too sparse
INFO: [Synth 8-5546] ROM "fifo_reg[37]" won't be mapped to RAM because it is too sparse
INFO: [Synth 8-5546] ROM "fifo_reg[36]" won't be mapped to RAM because it is too sparse
INFO: [Synth 8-5546] ROM "fifo_reg[35]" won't be mapped to RAM because it is too sparse
INFO: [Synth 8-5546] ROM "fifo_reg[34]" won't be mapped to RAM because it is too sparse
INFO: [Synth 8-5546] ROM "fifo_reg[33]" won't be mapped to RAM because it is too sparse
INFO: [Synth 8-5546] ROM "fifo_reg[32]" won't be mapped to RAM because it is too sparse
INFO: [Synth 8-5546] ROM "fifo_reg[31]" won't be mapped to RAM because it is too sparse
INFO: [Synth 8-5546] ROM "fifo_reg[30]" won't be mapped to RAM because it is too sparse
INFO: [Synth 8-5546] ROM "fifo_reg[29]" won't be mapped to RAM because it is too sparse
INFO: [Synth 8-5546] ROM "fifo_reg[28]" won't be mapped to RAM because it is too sparse
INFO: [Synth 8-5546] ROM "fifo_reg[27]" won't be mapped to RAM because it is too sparse
INFO: [Synth 8-5546] ROM "fifo_reg[26]" won't be mapped to RAM because it is too sparse
INFO: [Synth 8-5546] ROM "fifo_reg[25]" won't be mapped to RAM because it is too sparse
INFO: [Synth 8-5546] ROM "fifo_reg[24]" won't be mapped to RAM because it is too sparse
INFO: [Synth 8-5546] ROM "fifo_reg[23]" won't be mapped to RAM because it is too sparse
INFO: [Synth 8-5546] ROM "fifo_reg[22]" won't be mapped to RAM because it is too sparse
INFO: [Synth 8-5546] ROM "fifo_reg[21]" won't be mapped to RAM because it is too sparse
INFO: [Synth 8-5546] ROM "fifo_reg[20]" won't be mapped to RAM because it is too sparse
INFO: [Synth 8-5546] ROM "fifo_reg[19]" won't be mapped to RAM because it is too sparse
INFO: [Synth 8-5546] ROM "fifo_reg[18]" won't be mapped to RAM because it is too sparse
INFO: [Synth 8-5546] ROM "fifo_reg[17]" won't be mapped to RAM because it is too sparse
INFO: [Synth 8-5546] ROM "fifo_reg[16]" won't be mapped to RAM because it is too sparse
INFO: [Synth 8-5546] ROM "fifo_reg[15]" won't be mapped to RAM because it is too sparse
INFO: [Synth 8-5546] ROM "fifo_reg[14]" won't be mapped to RAM because it is too sparse
INFO: [Synth 8-5546] ROM "fifo_reg[13]" won't be mapped to RAM because it is too sparse
INFO: [Synth 8-5546] ROM "fifo_reg[12]" won't be mapped to RAM because it is too sparse
INFO: [Synth 8-5546] ROM "fifo_reg[11]" won't be mapped to RAM because it is too sparse
INFO: [Synth 8-5546] ROM "fifo_reg[10]" won't be mapped to RAM because it is too sparse
INFO: [Synth 8-5546] ROM "fifo_reg[9]" won't be mapped to RAM because it is too sparse
INFO: [Synth 8-5546] ROM "fifo_reg[8]" won't be mapped to RAM because it is too sparse
INFO: [Synth 8-5546] ROM "fifo_reg[7]" won't be mapped to RAM because it is too sparse
INFO: [Synth 8-5546] ROM "fifo_reg[6]" won't be mapped to RAM because it is too sparse
INFO: [Synth 8-5546] ROM "fifo_reg[5]" won't be mapped to RAM because it is too sparse
INFO: [Synth 8-5546] ROM "fifo_reg[4]" won't be mapped to RAM because it is too sparse
INFO: [Synth 8-5546] ROM "fifo_reg[3]" won't be mapped to RAM because it is too sparse
INFO: [Synth 8-5546] ROM "fifo_reg[2]" won't be mapped to RAM because it is too sparse
INFO: [Synth 8-5546] ROM "fifo_reg[1]" won't be mapped to RAM because it is too sparse
INFO: [Synth 8-5546] ROM "fifo_reg[0]" won't be mapped to RAM because it is too sparse
INFO: [Synth 8-5546] ROM "mst_exec_state" won't be mapped to RAM because it is too sparse
INFO: [Synth 8-5546] ROM "count" won't be mapped to RAM because it is too sparse
INFO: [Synth 8-5544] ROM "tx_done" won't be mapped to Block RAM because address size (4) smaller than threshold (5)
---------------------------------------------------------------------------------
Finished RTL Optimization Phase 2 : Time (s): cpu = 00:00:20 ; elapsed = 00:00:22 . Memory (MB): peak = 782.270 ; gain = 526.746
---------------------------------------------------------------------------------

Report RTL Partitions: 
+-+--------------+------------+----------+
| |RTL Partition |Replication |Instances |
+-+--------------+------------+----------+
+-+--------------+------------+----------+
---------------------------------------------------------------------------------
Start RTL Component Statistics 
---------------------------------------------------------------------------------
Detailed RTL Component Info : 
+---Adders : 
	   2 Input      7 Bit       Adders := 1     
	   2 Input      5 Bit       Adders := 1     
	   2 Input      4 Bit       Adders := 1     
+---Registers : 
	               32 Bit    Registers := 1     
	               16 Bit    Registers := 128   
	                8 Bit    Registers := 332   
	                7 Bit    Registers := 1     
	                5 Bit    Registers := 1     
	                4 Bit    Registers := 1     
	                2 Bit    Registers := 1     
	                1 Bit    Registers := 5     
+---Muxes : 
	   4 Input     96 Bit        Muxes := 3     
	   4 Input     63 Bit        Muxes := 8     
	   2 Input     16 Bit        Muxes := 24    
	   2 Input      2 Bit        Muxes := 1     
	   5 Input      2 Bit        Muxes := 1     
	   2 Input      1 Bit        Muxes := 215   
	   4 Input      1 Bit        Muxes := 1     
	   5 Input      1 Bit        Muxes := 1     
---------------------------------------------------------------------------------
Finished RTL Component Statistics 
---------------------------------------------------------------------------------
---------------------------------------------------------------------------------
Start RTL Hierarchical Component Statistics 
---------------------------------------------------------------------------------
Hierarchical RTL Component report 
Module tensor_slice 
Detailed RTL Component Info : 
+---Registers : 
	               16 Bit    Registers := 16    
+---Muxes : 
	   4 Input     63 Bit        Muxes := 1     
	   2 Input     16 Bit        Muxes := 3     
	   2 Input      1 Bit        Muxes := 16    
Module tensor_core 
Detailed RTL Component Info : 
+---Muxes : 
	   4 Input     96 Bit        Muxes := 3     
Module myip_v1_0_S00_AXIS 
Detailed RTL Component Info : 
+---Adders : 
	   2 Input      7 Bit       Adders := 1     
+---Registers : 
	                8 Bit    Registers := 332   
	                7 Bit    Registers := 1     
	                1 Bit    Registers := 2     
+---Muxes : 
	   2 Input      1 Bit        Muxes := 85    
Module myip_v1_0_M00_AXIS 
Detailed RTL Component Info : 
+---Adders : 
	   2 Input      5 Bit       Adders := 1     
	   2 Input      4 Bit       Adders := 1     
+---Registers : 
	               32 Bit    Registers := 1     
	                5 Bit    Registers := 1     
	                4 Bit    Registers := 1     
	                2 Bit    Registers := 1     
	                1 Bit    Registers := 3     
+---Muxes : 
	   2 Input      2 Bit        Muxes := 1     
	   5 Input      2 Bit        Muxes := 1     
	   4 Input      1 Bit        Muxes := 1     
	   2 Input      1 Bit        Muxes := 2     
	   5 Input      1 Bit        Muxes := 1     
---------------------------------------------------------------------------------
Finished RTL Hierarchical Component Statistics
---------------------------------------------------------------------------------
---------------------------------------------------------------------------------
Start Part Resource Summary
---------------------------------------------------------------------------------
Part Resources:
DSPs: 220 (col length:60)
BRAMs: 280 (col length: RAMB18 60 RAMB36 30)
---------------------------------------------------------------------------------
Finished Part Resource Summary
---------------------------------------------------------------------------------
---------------------------------------------------------------------------------
Start Cross Boundary and Area Optimization
---------------------------------------------------------------------------------
INFO: [Synth 8-5546] ROM "inst/myip_v1_0_S00_AXIS_inst/fifo_reg[0]" won't be mapped to RAM because it is too sparse
INFO: [Synth 8-5546] ROM "inst/myip_v1_0_S00_AXIS_inst/fifo_reg[18]" won't be mapped to RAM because it is too sparse
INFO: [Synth 8-5546] ROM "inst/myip_v1_0_S00_AXIS_inst/fifo_reg[17]" won't be mapped to RAM because it is too sparse
INFO: [Synth 8-5546] ROM "inst/myip_v1_0_S00_AXIS_inst/fifo_reg[16]" won't be mapped to RAM because it is too sparse
INFO: [Synth 8-5546] ROM "inst/myip_v1_0_S00_AXIS_inst/fifo_reg[15]" won't be mapped to RAM because it is too sparse
INFO: [Synth 8-5546] ROM "inst/myip_v1_0_S00_AXIS_inst/fifo_reg[14]" won't be mapped to RAM because it is too sparse
INFO: [Synth 8-5546] ROM "inst/myip_v1_0_S00_AXIS_inst/fifo_reg[13]" won't be mapped to RAM because it is too sparse
INFO: [Synth 8-5546] ROM "inst/myip_v1_0_S00_AXIS_inst/fifo_reg[12]" won't be mapped to RAM because it is too sparse
INFO: [Synth 8-5546] ROM "inst/myip_v1_0_S00_AXIS_inst/fifo_reg[11]" won't be mapped to RAM because it is too sparse
INFO: [Synth 8-5546] ROM "inst/myip_v1_0_S00_AXIS_inst/fifo_reg[10]" won't be mapped to RAM because it is too sparse
INFO: [Synth 8-5546] ROM "inst/myip_v1_0_S00_AXIS_inst/fifo_reg[9]" won't be mapped to RAM because it is too sparse
INFO: [Synth 8-5546] ROM "inst/myip_v1_0_S00_AXIS_inst/fifo_reg[8]" won't be mapped to RAM because it is too sparse
INFO: [Synth 8-5546] ROM "inst/myip_v1_0_S00_AXIS_inst/fifo_reg[7]" won't be mapped to RAM because it is too sparse
INFO: [Synth 8-5546] ROM "inst/myip_v1_0_S00_AXIS_inst/fifo_reg[6]" won't be mapped to RAM because it is too sparse
INFO: [Synth 8-5546] ROM "inst/myip_v1_0_S00_AXIS_inst/fifo_reg[5]" won't be mapped to RAM because it is too sparse
INFO: [Common 17-14] Message 'Synth 8-5546' appears 100 times and further instances of the messages will be disabled. Use the Tcl command set_msg_config to change the current settings.
INFO: [Synth 8-3917] design block1_myip_0_2 has port m00_axis_tstrb[3] driven by constant 1
INFO: [Synth 8-3917] design block1_myip_0_2 has port m00_axis_tstrb[2] driven by constant 1
INFO: [Synth 8-3917] design block1_myip_0_2 has port m00_axis_tstrb[1] driven by constant 1
INFO: [Synth 8-3917] design block1_myip_0_2 has port m00_axis_tstrb[0] driven by constant 1
WARNING: [Synth 8-3331] design tensor_slice has unconnected port xcfg_reg[11]
WARNING: [Synth 8-3331] design tensor_slice has unconnected port xcfg_reg[10]
WARNING: [Synth 8-3331] design tensor_slice has unconnected port xcfg_reg[9]
WARNING: [Synth 8-3331] design tensor_slice has unconnected port xcfg_reg[8]
WARNING: [Synth 8-3331] design tensor_slice has unconnected port xcfg_reg[7]
WARNING: [Synth 8-3331] design tensor_slice has unconnected port xcfg_reg[6]
WARNING: [Synth 8-3331] design tensor_slice has unconnected port xcfg_reg[5]
WARNING: [Synth 8-3331] design tensor_slice has unconnected port xcfg_reg[4]
WARNING: [Synth 8-3331] design tensor_slice has unconnected port xcfg_reg[3]
WARNING: [Synth 8-3331] design tensor_slice has unconnected port xcfg_reg[0]
WARNING: [Synth 8-3331] design tensor_slice has unconnected port xweight[255]
WARNING: [Synth 8-3331] design tensor_slice has unconnected port xweight[191]
WARNING: [Synth 8-3331] design block1_myip_0_2 has unconnected port s00_axis_tstrb[3]
WARNING: [Synth 8-3331] design block1_myip_0_2 has unconnected port s00_axis_tstrb[2]
WARNING: [Synth 8-3331] design block1_myip_0_2 has unconnected port s00_axis_tstrb[1]
WARNING: [Synth 8-3331] design block1_myip_0_2 has unconnected port s00_axis_tstrb[0]
WARNING: [Synth 8-3332] Sequential element (sp_reg[0][15]) is unused and will be removed from module tensor_slice__5.
WARNING: [Synth 8-3332] Sequential element (sp_reg[0][14]) is unused and will be removed from module tensor_slice__5.
WARNING: [Synth 8-3332] Sequential element (sp_reg[0][13]) is unused and will be removed from module tensor_slice__5.
WARNING: [Synth 8-3332] Sequential element (sp_reg[0][12]) is unused and will be removed from module tensor_slice__5.
WARNING: [Synth 8-3332] Sequential element (sp_reg[0][11]) is unused and will be removed from module tensor_slice__5.
WARNING: [Synth 8-3332] Sequential element (sp_reg[0][10]) is unused and will be removed from module tensor_slice__5.
WARNING: [Synth 8-3332] Sequential element (sp_reg[0][9]) is unused and will be removed from module tensor_slice__5.
WARNING: [Synth 8-3332] Sequential element (sp_reg[0][8]) is unused and will be removed from module tensor_slice__5.
WARNING: [Synth 8-3332] Sequential element (sp_reg[0][7]) is unused and will be removed from module tensor_slice__5.
WARNING: [Synth 8-3332] Sequential element (sp_reg[0][6]) is unused and will be removed from module tensor_slice__5.
WARNING: [Synth 8-3332] Sequential element (sp_reg[0][5]) is unused and will be removed from module tensor_slice__5.
WARNING: [Synth 8-3332] Sequential element (sp_reg[0][4]) is unused and will be removed from module tensor_slice__5.
WARNING: [Synth 8-3332] Sequential element (sp_reg[0][3]) is unused and will be removed from module tensor_slice__5.
WARNING: [Synth 8-3332] Sequential element (sp_reg[0][2]) is unused and will be removed from module tensor_slice__5.
WARNING: [Synth 8-3332] Sequential element (sp_reg[0][1]) is unused and will be removed from module tensor_slice__5.
WARNING: [Synth 8-3332] Sequential element (sp_reg[0][0]) is unused and will be removed from module tensor_slice__5.
WARNING: [Synth 8-3332] Sequential element (sp_reg[1][15]) is unused and will be removed from module tensor_slice__5.
WARNING: [Synth 8-3332] Sequential element (sp_reg[1][14]) is unused and will be removed from module tensor_slice__5.
WARNING: [Synth 8-3332] Sequential element (sp_reg[1][13]) is unused and will be removed from module tensor_slice__5.
WARNING: [Synth 8-3332] Sequential element (sp_reg[1][12]) is unused and will be removed from module tensor_slice__5.
WARNING: [Synth 8-3332] Sequential element (sp_reg[1][11]) is unused and will be removed from module tensor_slice__5.
WARNING: [Synth 8-3332] Sequential element (sp_reg[1][10]) is unused and will be removed from module tensor_slice__5.
WARNING: [Synth 8-3332] Sequential element (sp_reg[1][9]) is unused and will be removed from module tensor_slice__5.
WARNING: [Synth 8-3332] Sequential element (sp_reg[1][8]) is unused and will be removed from module tensor_slice__5.
WARNING: [Synth 8-3332] Sequential element (sp_reg[1][7]) is unused and will be removed from module tensor_slice__5.
WARNING: [Synth 8-3332] Sequential element (sp_reg[1][6]) is unused and will be removed from module tensor_slice__5.
WARNING: [Synth 8-3332] Sequential element (sp_reg[1][5]) is unused and will be removed from module tensor_slice__5.
WARNING: [Synth 8-3332] Sequential element (sp_reg[1][4]) is unused and will be removed from module tensor_slice__5.
WARNING: [Synth 8-3332] Sequential element (sp_reg[1][3]) is unused and will be removed from module tensor_slice__5.
WARNING: [Synth 8-3332] Sequential element (sp_reg[1][2]) is unused and will be removed from module tensor_slice__5.
WARNING: [Synth 8-3332] Sequential element (sp_reg[1][1]) is unused and will be removed from module tensor_slice__5.
WARNING: [Synth 8-3332] Sequential element (sp_reg[1][0]) is unused and will be removed from module tensor_slice__5.
WARNING: [Synth 8-3332] Sequential element (sp_reg[2][15]) is unused and will be removed from module tensor_slice__5.
WARNING: [Synth 8-3332] Sequential element (sp_reg[2][14]) is unused and will be removed from module tensor_slice__5.
WARNING: [Synth 8-3332] Sequential element (sp_reg[2][13]) is unused and will be removed from module tensor_slice__5.
WARNING: [Synth 8-3332] Sequential element (sp_reg[2][12]) is unused and will be removed from module tensor_slice__5.
WARNING: [Synth 8-3332] Sequential element (sp_reg[2][11]) is unused and will be removed from module tensor_slice__5.
WARNING: [Synth 8-3332] Sequential element (sp_reg[2][10]) is unused and will be removed from module tensor_slice__5.
WARNING: [Synth 8-3332] Sequential element (sp_reg[2][9]) is unused and will be removed from module tensor_slice__5.
WARNING: [Synth 8-3332] Sequential element (sp_reg[2][8]) is unused and will be removed from module tensor_slice__5.
WARNING: [Synth 8-3332] Sequential element (sp_reg[2][7]) is unused and will be removed from module tensor_slice__5.
WARNING: [Synth 8-3332] Sequential element (sp_reg[2][6]) is unused and will be removed from module tensor_slice__5.
WARNING: [Synth 8-3332] Sequential element (sp_reg[2][5]) is unused and will be removed from module tensor_slice__5.
WARNING: [Synth 8-3332] Sequential element (sp_reg[2][4]) is unused and will be removed from module tensor_slice__5.
WARNING: [Synth 8-3332] Sequential element (sp_reg[2][3]) is unused and will be removed from module tensor_slice__5.
WARNING: [Synth 8-3332] Sequential element (sp_reg[2][2]) is unused and will be removed from module tensor_slice__5.
WARNING: [Synth 8-3332] Sequential element (sp_reg[2][1]) is unused and will be removed from module tensor_slice__5.
WARNING: [Synth 8-3332] Sequential element (sp_reg[2][0]) is unused and will be removed from module tensor_slice__5.
WARNING: [Synth 8-3332] Sequential element (sp_reg[3][15]) is unused and will be removed from module tensor_slice__5.
WARNING: [Synth 8-3332] Sequential element (sp_reg[3][14]) is unused and will be removed from module tensor_slice__5.
WARNING: [Synth 8-3332] Sequential element (sp_reg[3][13]) is unused and will be removed from module tensor_slice__5.
WARNING: [Synth 8-3332] Sequential element (sp_reg[3][12]) is unused and will be removed from module tensor_slice__5.
WARNING: [Synth 8-3332] Sequential element (sp_reg[3][11]) is unused and will be removed from module tensor_slice__5.
WARNING: [Synth 8-3332] Sequential element (sp_reg[3][10]) is unused and will be removed from module tensor_slice__5.
WARNING: [Synth 8-3332] Sequential element (sp_reg[3][9]) is unused and will be removed from module tensor_slice__5.
WARNING: [Synth 8-3332] Sequential element (sp_reg[3][8]) is unused and will be removed from module tensor_slice__5.
WARNING: [Synth 8-3332] Sequential element (sp_reg[3][7]) is unused and will be removed from module tensor_slice__5.
WARNING: [Synth 8-3332] Sequential element (sp_reg[3][6]) is unused and will be removed from module tensor_slice__5.
WARNING: [Synth 8-3332] Sequential element (sp_reg[3][5]) is unused and will be removed from module tensor_slice__5.
WARNING: [Synth 8-3332] Sequential element (sp_reg[3][4]) is unused and will be removed from module tensor_slice__5.
WARNING: [Synth 8-3332] Sequential element (sp_reg[3][3]) is unused and will be removed from module tensor_slice__5.
WARNING: [Synth 8-3332] Sequential element (sp_reg[3][2]) is unused and will be removed from module tensor_slice__5.
WARNING: [Synth 8-3332] Sequential element (sp_reg[3][1]) is unused and will be removed from module tensor_slice__5.
WARNING: [Synth 8-3332] Sequential element (sp_reg[3][0]) is unused and will be removed from module tensor_slice__5.
WARNING: [Synth 8-3332] Sequential element (sp_reg[4][15]) is unused and will be removed from module tensor_slice__5.
WARNING: [Synth 8-3332] Sequential element (sp_reg[4][14]) is unused and will be removed from module tensor_slice__5.
WARNING: [Synth 8-3332] Sequential element (sp_reg[4][13]) is unused and will be removed from module tensor_slice__5.
WARNING: [Synth 8-3332] Sequential element (sp_reg[4][12]) is unused and will be removed from module tensor_slice__5.
WARNING: [Synth 8-3332] Sequential element (sp_reg[4][11]) is unused and will be removed from module tensor_slice__5.
WARNING: [Synth 8-3332] Sequential element (sp_reg[4][10]) is unused and will be removed from module tensor_slice__5.
WARNING: [Synth 8-3332] Sequential element (sp_reg[4][9]) is unused and will be removed from module tensor_slice__5.
WARNING: [Synth 8-3332] Sequential element (sp_reg[4][8]) is unused and will be removed from module tensor_slice__5.
WARNING: [Synth 8-3332] Sequential element (sp_reg[4][7]) is unused and will be removed from module tensor_slice__5.
WARNING: [Synth 8-3332] Sequential element (sp_reg[4][6]) is unused and will be removed from module tensor_slice__5.
WARNING: [Synth 8-3332] Sequential element (sp_reg[4][5]) is unused and will be removed from module tensor_slice__5.
WARNING: [Synth 8-3332] Sequential element (sp_reg[4][4]) is unused and will be removed from module tensor_slice__5.
WARNING: [Synth 8-3332] Sequential element (sp_reg[4][3]) is unused and will be removed from module tensor_slice__5.
WARNING: [Synth 8-3332] Sequential element (sp_reg[4][2]) is unused and will be removed from module tensor_slice__5.
WARNING: [Synth 8-3332] Sequential element (sp_reg[4][1]) is unused and will be removed from module tensor_slice__5.
WARNING: [Synth 8-3332] Sequential element (sp_reg[4][0]) is unused and will be removed from module tensor_slice__5.
WARNING: [Synth 8-3332] Sequential element (sp_reg[5][15]) is unused and will be removed from module tensor_slice__5.
WARNING: [Synth 8-3332] Sequential element (sp_reg[5][14]) is unused and will be removed from module tensor_slice__5.
WARNING: [Synth 8-3332] Sequential element (sp_reg[5][13]) is unused and will be removed from module tensor_slice__5.
WARNING: [Synth 8-3332] Sequential element (sp_reg[5][12]) is unused and will be removed from module tensor_slice__5.
WARNING: [Synth 8-3332] Sequential element (sp_reg[5][11]) is unused and will be removed from module tensor_slice__5.
WARNING: [Synth 8-3332] Sequential element (sp_reg[5][10]) is unused and will be removed from module tensor_slice__5.
WARNING: [Synth 8-3332] Sequential element (sp_reg[5][9]) is unused and will be removed from module tensor_slice__5.
WARNING: [Synth 8-3332] Sequential element (sp_reg[5][8]) is unused and will be removed from module tensor_slice__5.
WARNING: [Synth 8-3332] Sequential element (sp_reg[5][7]) is unused and will be removed from module tensor_slice__5.
WARNING: [Synth 8-3332] Sequential element (sp_reg[5][6]) is unused and will be removed from module tensor_slice__5.
WARNING: [Synth 8-3332] Sequential element (sp_reg[5][5]) is unused and will be removed from module tensor_slice__5.
WARNING: [Synth 8-3332] Sequential element (sp_reg[5][4]) is unused and will be removed from module tensor_slice__5.
WARNING: [Synth 8-3332] Sequential element (sp_reg[5][3]) is unused and will be removed from module tensor_slice__5.
WARNING: [Synth 8-3332] Sequential element (sp_reg[5][2]) is unused and will be removed from module tensor_slice__5.
WARNING: [Synth 8-3332] Sequential element (sp_reg[5][1]) is unused and will be removed from module tensor_slice__5.
WARNING: [Synth 8-3332] Sequential element (sp_reg[5][0]) is unused and will be removed from module tensor_slice__5.
WARNING: [Synth 8-3332] Sequential element (sp_reg[6][15]) is unused and will be removed from module tensor_slice__5.
WARNING: [Synth 8-3332] Sequential element (sp_reg[6][14]) is unused and will be removed from module tensor_slice__5.
WARNING: [Synth 8-3332] Sequential element (sp_reg[6][13]) is unused and will be removed from module tensor_slice__5.
WARNING: [Synth 8-3332] Sequential element (sp_reg[6][12]) is unused and will be removed from module tensor_slice__5.
INFO: [Common 17-14] Message 'Synth 8-3332' appears 100 times and further instances of the messages will be disabled. Use the Tcl command set_msg_config to change the current settings.
---------------------------------------------------------------------------------
Finished Cross Boundary and Area Optimization : Time (s): cpu = 00:00:53 ; elapsed = 00:00:55 . Memory (MB): peak = 782.270 ; gain = 526.746
---------------------------------------------------------------------------------

Report RTL Partitions: 
+-+--------------+------------+----------+
| |RTL Partition |Replication |Instances |
+-+--------------+------------+----------+
+-+--------------+------------+----------+
---------------------------------------------------------------------------------
Start Applying XDC Timing Constraints
---------------------------------------------------------------------------------
---------------------------------------------------------------------------------
Finished Applying XDC Timing Constraints : Time (s): cpu = 00:01:03 ; elapsed = 00:01:05 . Memory (MB): peak = 811.422 ; gain = 555.898
---------------------------------------------------------------------------------
---------------------------------------------------------------------------------
Start Timing Optimization
---------------------------------------------------------------------------------
---------------------------------------------------------------------------------
Finished Timing Optimization : Time (s): cpu = 00:01:03 ; elapsed = 00:01:05 . Memory (MB): peak = 819.145 ; gain = 563.621
---------------------------------------------------------------------------------

Report RTL Partitions: 
+-+--------------+------------+----------+
| |RTL Partition |Replication |Instances |
+-+--------------+------------+----------+
+-+--------------+------------+----------+
---------------------------------------------------------------------------------
Start Technology Mapping
---------------------------------------------------------------------------------
---------------------------------------------------------------------------------
Finished Technology Mapping : Time (s): cpu = 00:01:06 ; elapsed = 00:01:08 . Memory (MB): peak = 972.461 ; gain = 716.938
---------------------------------------------------------------------------------

Report RTL Partitions: 
+-+--------------+------------+----------+
| |RTL Partition |Replication |Instances |
+-+--------------+------------+----------+
+-+--------------+------------+----------+
---------------------------------------------------------------------------------
Start IO Insertion
---------------------------------------------------------------------------------
---------------------------------------------------------------------------------
Start Flattening Before IO Insertion
---------------------------------------------------------------------------------
---------------------------------------------------------------------------------
Finished Flattening Before IO Insertion
---------------------------------------------------------------------------------
---------------------------------------------------------------------------------
Start Final Netlist Cleanup
---------------------------------------------------------------------------------
---------------------------------------------------------------------------------
Finished Final Netlist Cleanup
---------------------------------------------------------------------------------
---------------------------------------------------------------------------------
Finished IO Insertion : Time (s): cpu = 00:01:07 ; elapsed = 00:01:09 . Memory (MB): peak = 972.461 ; gain = 716.938
---------------------------------------------------------------------------------

Report Check Netlist: 
+------+------------------+-------+---------+-------+------------------+
|      |Item              |Errors |Warnings |Status |Description       |
+------+------------------+-------+---------+-------+------------------+
|1     |multi_driven_nets |      0|        0|Passed |Multi driven nets |
+------+------------------+-------+---------+-------+------------------+
---------------------------------------------------------------------------------
Start Renaming Generated Instances
---------------------------------------------------------------------------------
---------------------------------------------------------------------------------
Finished Renaming Generated Instances : Time (s): cpu = 00:01:07 ; elapsed = 00:01:09 . Memory (MB): peak = 972.461 ; gain = 716.938
---------------------------------------------------------------------------------

Report RTL Partitions: 
+-+--------------+------------+----------+
| |RTL Partition |Replication |Instances |
+-+--------------+------------+----------+
+-+--------------+------------+----------+
---------------------------------------------------------------------------------
Start Rebuilding User Hierarchy
---------------------------------------------------------------------------------
---------------------------------------------------------------------------------
Finished Rebuilding User Hierarchy : Time (s): cpu = 00:01:08 ; elapsed = 00:01:10 . Memory (MB): peak = 972.461 ; gain = 716.938
---------------------------------------------------------------------------------
---------------------------------------------------------------------------------
Start Renaming Generated Ports
---------------------------------------------------------------------------------
---------------------------------------------------------------------------------
Finished Renaming Generated Ports : Time (s): cpu = 00:01:08 ; elapsed = 00:01:10 . Memory (MB): peak = 972.461 ; gain = 716.938
---------------------------------------------------------------------------------
---------------------------------------------------------------------------------
Start Handling Custom Attributes
---------------------------------------------------------------------------------
---------------------------------------------------------------------------------
Finished Handling Custom Attributes : Time (s): cpu = 00:01:08 ; elapsed = 00:01:10 . Memory (MB): peak = 972.461 ; gain = 716.938
---------------------------------------------------------------------------------
---------------------------------------------------------------------------------
Start Renaming Generated Nets
---------------------------------------------------------------------------------
---------------------------------------------------------------------------------
Finished Renaming Generated Nets : Time (s): cpu = 00:01:08 ; elapsed = 00:01:10 . Memory (MB): peak = 972.461 ; gain = 716.938
---------------------------------------------------------------------------------
---------------------------------------------------------------------------------
Start Writing Synthesis Report
---------------------------------------------------------------------------------

Report BlackBoxes: 
+-+--------------+----------+
| |BlackBox name |Instances |
+-+--------------+----------+
+-+--------------+----------+

Report Cell Usage: 
+------+-------+------+
|      |Cell   |Count |
+------+-------+------+
|1     |CARRY4 |   460|
|2     |LUT1   |    37|
|3     |LUT2   |   945|
|4     |LUT3   |   101|
|5     |LUT4   |   603|
|6     |LUT5   |   482|
|7     |LUT6   |  3333|
|8     |MUXF7  |   128|
|9     |MUXF8  |    64|
|10    |FDCE   |  1024|
|11    |FDRE   |  1690|
|12    |FDSE   |     1|
+------+-------+------+

Report Instance Areas: 
+------+----------------------------+-------------------+------+
|      |Instance                    |Module             |Cells |
+------+----------------------------+-------------------+------+
|1     |top                         |                   |  8868|
|2     |  inst                      |myip_v1_0          |  8028|
|3     |    myip_v1_0_M00_AXIS_inst |myip_v1_0_M00_AXIS |    66|
|4     |    myip_v1_0_S00_AXIS_inst |myip_v1_0_S00_AXIS |  7962|
|5     |      tc1                   |tensor_core        |  1793|
|6     |        ts1                 |tensor_slice       |   449|
|7     |        ts2                 |tensor_slice_0     |   448|
|8     |        ts3                 |tensor_slice_1     |   448|
|9     |        ts4                 |tensor_slice_2     |   448|
+------+----------------------------+-------------------+------+
---------------------------------------------------------------------------------
Finished Writing Synthesis Report : Time (s): cpu = 00:01:08 ; elapsed = 00:01:10 . Memory (MB): peak = 972.461 ; gain = 716.938
---------------------------------------------------------------------------------
Synthesis finished with 0 errors, 0 critical warnings and 1046 warnings.
Synthesis Optimization Runtime : Time (s): cpu = 00:00:54 ; elapsed = 00:01:03 . Memory (MB): peak = 972.461 ; gain = 358.855
Synthesis Optimization Complete : Time (s): cpu = 00:01:08 ; elapsed = 00:01:10 . Memory (MB): peak = 972.461 ; gain = 716.938
INFO: [Project 1-571] Translating synthesized netlist
INFO: [Netlist 29-17] Analyzing 652 Unisim elements for replacement
INFO: [Netlist 29-28] Unisim Transformation completed in 0 CPU seconds
INFO: [Project 1-570] Preparing netlist for logic optimization
INFO: [Opt 31-138] Pushed 0 inverter(s) to 0 load pin(s).
INFO: [Project 1-111] Unisim Transformation Summary:
No Unisim elements were transformed.

INFO: [Common 17-83] Releasing license: Synthesis
148 Infos, 334 Warnings, 0 Critical Warnings and 0 Errors encountered.
synth_design completed successfully
synth_design: Time (s): cpu = 00:01:11 ; elapsed = 00:01:14 . Memory (MB): peak = 972.461 ; gain = 728.406
INFO: [Common 17-1381] The checkpoint 'C:/Users/Yongqin Wang/vivad/sure/sure.runs/block1_myip_0_2_synth_1/block1_myip_0_2.dcp' has been generated.
INFO: [Coretcl 2-1482] Added synthesis output to IP cache for IP c:/Users/Yongqin Wang/vivad/sure/sure.srcs/sources_1/bd/block1/ip/block1_myip_0_2/block1_myip_0_2.xci
INFO: [Coretcl 2-1174] Renamed 8 cell refs.
INFO: [Common 17-1381] The checkpoint 'C:/Users/Yongqin Wang/vivad/sure/sure.runs/block1_myip_0_2_synth_1/block1_myip_0_2.dcp' has been generated.
INFO: [runtcl-4] Executing : report_utilization -file block1_myip_0_2_utilization_synth.rpt -pb block1_myip_0_2_utilization_synth.pb
report_utilization: Time (s): cpu = 00:00:00 ; elapsed = 00:00:00.065 . Memory (MB): peak = 972.461 ; gain = 0.000
INFO: [Common 17-206] Exiting Vivado at Wed Apr 11 21:13:50 2018...
